(kicad_sch (version 20211123) (generator eeschema)

  (uuid e63e39d7-6ac0-4ffd-8aa3-1841a4541b55)

  (paper "A4")

  (lib_symbols
    (symbol "74xx:74HC00" (pin_names (offset 1.016)) (in_bom yes) (on_board yes)
      (property "Reference" "U" (id 0) (at 0 1.27 0)
        (effects (font (size 1.27 1.27)))
      )
      (property "Value" "74HC00" (id 1) (at 0 -1.27 0)
        (effects (font (size 1.27 1.27)))
      )
      (property "Footprint" "" (id 2) (at 0 0 0)
        (effects (font (size 1.27 1.27)) hide)
      )
      (property "Datasheet" "http://www.ti.com/lit/gpn/sn74hc00" (id 3) (at 0 0 0)
        (effects (font (size 1.27 1.27)) hide)
      )
      (property "ki_locked" "" (id 4) (at 0 0 0)
        (effects (font (size 1.27 1.27)))
      )
      (property "ki_keywords" "HCMOS nand 2-input" (id 5) (at 0 0 0)
        (effects (font (size 1.27 1.27)) hide)
      )
      (property "ki_description" "quad 2-input NAND gate" (id 6) (at 0 0 0)
        (effects (font (size 1.27 1.27)) hide)
      )
      (property "ki_fp_filters" "DIP*W7.62mm* SO14*" (id 7) (at 0 0 0)
        (effects (font (size 1.27 1.27)) hide)
      )
      (symbol "74HC00_1_1"
        (arc (start 0 -3.81) (mid 3.81 0) (end 0 3.81)
          (stroke (width 0.254) (type default) (color 0 0 0 0))
          (fill (type background))
        )
        (polyline
          (pts
            (xy 0 3.81)
            (xy -3.81 3.81)
            (xy -3.81 -3.81)
            (xy 0 -3.81)
          )
          (stroke (width 0.254) (type default) (color 0 0 0 0))
          (fill (type background))
        )
        (pin input line (at -7.62 2.54 0) (length 3.81)
          (name "~" (effects (font (size 1.27 1.27))))
          (number "1" (effects (font (size 1.27 1.27))))
        )
        (pin input line (at -7.62 -2.54 0) (length 3.81)
          (name "~" (effects (font (size 1.27 1.27))))
          (number "2" (effects (font (size 1.27 1.27))))
        )
        (pin output inverted (at 7.62 0 180) (length 3.81)
          (name "~" (effects (font (size 1.27 1.27))))
          (number "3" (effects (font (size 1.27 1.27))))
        )
      )
      (symbol "74HC00_1_2"
        (arc (start -3.81 -3.81) (mid -2.589 0) (end -3.81 3.81)
          (stroke (width 0.254) (type default) (color 0 0 0 0))
          (fill (type none))
        )
        (arc (start -0.6096 -3.81) (mid 2.1855 -2.584) (end 3.81 0)
          (stroke (width 0.254) (type default) (color 0 0 0 0))
          (fill (type background))
        )
        (polyline
          (pts
            (xy -3.81 -3.81)
            (xy -0.635 -3.81)
          )
          (stroke (width 0.254) (type default) (color 0 0 0 0))
          (fill (type background))
        )
        (polyline
          (pts
            (xy -3.81 3.81)
            (xy -0.635 3.81)
          )
          (stroke (width 0.254) (type default) (color 0 0 0 0))
          (fill (type background))
        )
        (polyline
          (pts
            (xy -0.635 3.81)
            (xy -3.81 3.81)
            (xy -3.81 3.81)
            (xy -3.556 3.4036)
            (xy -3.0226 2.2606)
            (xy -2.6924 1.0414)
            (xy -2.6162 -0.254)
            (xy -2.7686 -1.4986)
            (xy -3.175 -2.7178)
            (xy -3.81 -3.81)
            (xy -3.81 -3.81)
            (xy -0.635 -3.81)
          )
          (stroke (width -25.4) (type default) (color 0 0 0 0))
          (fill (type background))
        )
        (arc (start 3.81 0) (mid 2.1928 2.5925) (end -0.6096 3.81)
          (stroke (width 0.254) (type default) (color 0 0 0 0))
          (fill (type background))
        )
        (pin input inverted (at -7.62 2.54 0) (length 4.318)
          (name "~" (effects (font (size 1.27 1.27))))
          (number "1" (effects (font (size 1.27 1.27))))
        )
        (pin input inverted (at -7.62 -2.54 0) (length 4.318)
          (name "~" (effects (font (size 1.27 1.27))))
          (number "2" (effects (font (size 1.27 1.27))))
        )
        (pin output line (at 7.62 0 180) (length 3.81)
          (name "~" (effects (font (size 1.27 1.27))))
          (number "3" (effects (font (size 1.27 1.27))))
        )
      )
      (symbol "74HC00_2_1"
        (arc (start 0 -3.81) (mid 3.81 0) (end 0 3.81)
          (stroke (width 0.254) (type default) (color 0 0 0 0))
          (fill (type background))
        )
        (polyline
          (pts
            (xy 0 3.81)
            (xy -3.81 3.81)
            (xy -3.81 -3.81)
            (xy 0 -3.81)
          )
          (stroke (width 0.254) (type default) (color 0 0 0 0))
          (fill (type background))
        )
        (pin input line (at -7.62 2.54 0) (length 3.81)
          (name "~" (effects (font (size 1.27 1.27))))
          (number "4" (effects (font (size 1.27 1.27))))
        )
        (pin input line (at -7.62 -2.54 0) (length 3.81)
          (name "~" (effects (font (size 1.27 1.27))))
          (number "5" (effects (font (size 1.27 1.27))))
        )
        (pin output inverted (at 7.62 0 180) (length 3.81)
          (name "~" (effects (font (size 1.27 1.27))))
          (number "6" (effects (font (size 1.27 1.27))))
        )
      )
      (symbol "74HC00_2_2"
        (arc (start -3.81 -3.81) (mid -2.589 0) (end -3.81 3.81)
          (stroke (width 0.254) (type default) (color 0 0 0 0))
          (fill (type none))
        )
        (arc (start -0.6096 -3.81) (mid 2.1855 -2.584) (end 3.81 0)
          (stroke (width 0.254) (type default) (color 0 0 0 0))
          (fill (type background))
        )
        (polyline
          (pts
            (xy -3.81 -3.81)
            (xy -0.635 -3.81)
          )
          (stroke (width 0.254) (type default) (color 0 0 0 0))
          (fill (type background))
        )
        (polyline
          (pts
            (xy -3.81 3.81)
            (xy -0.635 3.81)
          )
          (stroke (width 0.254) (type default) (color 0 0 0 0))
          (fill (type background))
        )
        (polyline
          (pts
            (xy -0.635 3.81)
            (xy -3.81 3.81)
            (xy -3.81 3.81)
            (xy -3.556 3.4036)
            (xy -3.0226 2.2606)
            (xy -2.6924 1.0414)
            (xy -2.6162 -0.254)
            (xy -2.7686 -1.4986)
            (xy -3.175 -2.7178)
            (xy -3.81 -3.81)
            (xy -3.81 -3.81)
            (xy -0.635 -3.81)
          )
          (stroke (width -25.4) (type default) (color 0 0 0 0))
          (fill (type background))
        )
        (arc (start 3.81 0) (mid 2.1928 2.5925) (end -0.6096 3.81)
          (stroke (width 0.254) (type default) (color 0 0 0 0))
          (fill (type background))
        )
        (pin input inverted (at -7.62 2.54 0) (length 4.318)
          (name "~" (effects (font (size 1.27 1.27))))
          (number "4" (effects (font (size 1.27 1.27))))
        )
        (pin input inverted (at -7.62 -2.54 0) (length 4.318)
          (name "~" (effects (font (size 1.27 1.27))))
          (number "5" (effects (font (size 1.27 1.27))))
        )
        (pin output line (at 7.62 0 180) (length 3.81)
          (name "~" (effects (font (size 1.27 1.27))))
          (number "6" (effects (font (size 1.27 1.27))))
        )
      )
      (symbol "74HC00_3_1"
        (arc (start 0 -3.81) (mid 3.81 0) (end 0 3.81)
          (stroke (width 0.254) (type default) (color 0 0 0 0))
          (fill (type background))
        )
        (polyline
          (pts
            (xy 0 3.81)
            (xy -3.81 3.81)
            (xy -3.81 -3.81)
            (xy 0 -3.81)
          )
          (stroke (width 0.254) (type default) (color 0 0 0 0))
          (fill (type background))
        )
        (pin input line (at -7.62 -2.54 0) (length 3.81)
          (name "~" (effects (font (size 1.27 1.27))))
          (number "10" (effects (font (size 1.27 1.27))))
        )
        (pin output inverted (at 7.62 0 180) (length 3.81)
          (name "~" (effects (font (size 1.27 1.27))))
          (number "8" (effects (font (size 1.27 1.27))))
        )
        (pin input line (at -7.62 2.54 0) (length 3.81)
          (name "~" (effects (font (size 1.27 1.27))))
          (number "9" (effects (font (size 1.27 1.27))))
        )
      )
      (symbol "74HC00_3_2"
        (arc (start -3.81 -3.81) (mid -2.589 0) (end -3.81 3.81)
          (stroke (width 0.254) (type default) (color 0 0 0 0))
          (fill (type none))
        )
        (arc (start -0.6096 -3.81) (mid 2.1855 -2.584) (end 3.81 0)
          (stroke (width 0.254) (type default) (color 0 0 0 0))
          (fill (type background))
        )
        (polyline
          (pts
            (xy -3.81 -3.81)
            (xy -0.635 -3.81)
          )
          (stroke (width 0.254) (type default) (color 0 0 0 0))
          (fill (type background))
        )
        (polyline
          (pts
            (xy -3.81 3.81)
            (xy -0.635 3.81)
          )
          (stroke (width 0.254) (type default) (color 0 0 0 0))
          (fill (type background))
        )
        (polyline
          (pts
            (xy -0.635 3.81)
            (xy -3.81 3.81)
            (xy -3.81 3.81)
            (xy -3.556 3.4036)
            (xy -3.0226 2.2606)
            (xy -2.6924 1.0414)
            (xy -2.6162 -0.254)
            (xy -2.7686 -1.4986)
            (xy -3.175 -2.7178)
            (xy -3.81 -3.81)
            (xy -3.81 -3.81)
            (xy -0.635 -3.81)
          )
          (stroke (width -25.4) (type default) (color 0 0 0 0))
          (fill (type background))
        )
        (arc (start 3.81 0) (mid 2.1928 2.5925) (end -0.6096 3.81)
          (stroke (width 0.254) (type default) (color 0 0 0 0))
          (fill (type background))
        )
        (pin input inverted (at -7.62 -2.54 0) (length 4.318)
          (name "~" (effects (font (size 1.27 1.27))))
          (number "10" (effects (font (size 1.27 1.27))))
        )
        (pin output line (at 7.62 0 180) (length 3.81)
          (name "~" (effects (font (size 1.27 1.27))))
          (number "8" (effects (font (size 1.27 1.27))))
        )
        (pin input inverted (at -7.62 2.54 0) (length 4.318)
          (name "~" (effects (font (size 1.27 1.27))))
          (number "9" (effects (font (size 1.27 1.27))))
        )
      )
      (symbol "74HC00_4_1"
        (arc (start 0 -3.81) (mid 3.81 0) (end 0 3.81)
          (stroke (width 0.254) (type default) (color 0 0 0 0))
          (fill (type background))
        )
        (polyline
          (pts
            (xy 0 3.81)
            (xy -3.81 3.81)
            (xy -3.81 -3.81)
            (xy 0 -3.81)
          )
          (stroke (width 0.254) (type default) (color 0 0 0 0))
          (fill (type background))
        )
        (pin output inverted (at 7.62 0 180) (length 3.81)
          (name "~" (effects (font (size 1.27 1.27))))
          (number "11" (effects (font (size 1.27 1.27))))
        )
        (pin input line (at -7.62 2.54 0) (length 3.81)
          (name "~" (effects (font (size 1.27 1.27))))
          (number "12" (effects (font (size 1.27 1.27))))
        )
        (pin input line (at -7.62 -2.54 0) (length 3.81)
          (name "~" (effects (font (size 1.27 1.27))))
          (number "13" (effects (font (size 1.27 1.27))))
        )
      )
      (symbol "74HC00_4_2"
        (arc (start -3.81 -3.81) (mid -2.589 0) (end -3.81 3.81)
          (stroke (width 0.254) (type default) (color 0 0 0 0))
          (fill (type none))
        )
        (arc (start -0.6096 -3.81) (mid 2.1855 -2.584) (end 3.81 0)
          (stroke (width 0.254) (type default) (color 0 0 0 0))
          (fill (type background))
        )
        (polyline
          (pts
            (xy -3.81 -3.81)
            (xy -0.635 -3.81)
          )
          (stroke (width 0.254) (type default) (color 0 0 0 0))
          (fill (type background))
        )
        (polyline
          (pts
            (xy -3.81 3.81)
            (xy -0.635 3.81)
          )
          (stroke (width 0.254) (type default) (color 0 0 0 0))
          (fill (type background))
        )
        (polyline
          (pts
            (xy -0.635 3.81)
            (xy -3.81 3.81)
            (xy -3.81 3.81)
            (xy -3.556 3.4036)
            (xy -3.0226 2.2606)
            (xy -2.6924 1.0414)
            (xy -2.6162 -0.254)
            (xy -2.7686 -1.4986)
            (xy -3.175 -2.7178)
            (xy -3.81 -3.81)
            (xy -3.81 -3.81)
            (xy -0.635 -3.81)
          )
          (stroke (width -25.4) (type default) (color 0 0 0 0))
          (fill (type background))
        )
        (arc (start 3.81 0) (mid 2.1928 2.5925) (end -0.6096 3.81)
          (stroke (width 0.254) (type default) (color 0 0 0 0))
          (fill (type background))
        )
        (pin output line (at 7.62 0 180) (length 3.81)
          (name "~" (effects (font (size 1.27 1.27))))
          (number "11" (effects (font (size 1.27 1.27))))
        )
        (pin input inverted (at -7.62 2.54 0) (length 4.318)
          (name "~" (effects (font (size 1.27 1.27))))
          (number "12" (effects (font (size 1.27 1.27))))
        )
        (pin input inverted (at -7.62 -2.54 0) (length 4.318)
          (name "~" (effects (font (size 1.27 1.27))))
          (number "13" (effects (font (size 1.27 1.27))))
        )
      )
      (symbol "74HC00_5_0"
        (pin power_in line (at 0 12.7 270) (length 5.08)
          (name "VCC" (effects (font (size 1.27 1.27))))
          (number "14" (effects (font (size 1.27 1.27))))
        )
        (pin power_in line (at 0 -12.7 90) (length 5.08)
          (name "GND" (effects (font (size 1.27 1.27))))
          (number "7" (effects (font (size 1.27 1.27))))
        )
      )
      (symbol "74HC00_5_1"
        (rectangle (start -5.08 7.62) (end 5.08 -7.62)
          (stroke (width 0.254) (type default) (color 0 0 0 0))
          (fill (type background))
        )
      )
    )
    (symbol "Connector_Generic:Conn_01x02" (pin_names (offset 1.016) hide) (in_bom yes) (on_board yes)
      (property "Reference" "J" (id 0) (at 0 2.54 0)
        (effects (font (size 1.27 1.27)))
      )
      (property "Value" "Conn_01x02" (id 1) (at 0 -5.08 0)
        (effects (font (size 1.27 1.27)))
      )
      (property "Footprint" "" (id 2) (at 0 0 0)
        (effects (font (size 1.27 1.27)) hide)
      )
      (property "Datasheet" "~" (id 3) (at 0 0 0)
        (effects (font (size 1.27 1.27)) hide)
      )
      (property "ki_keywords" "connector" (id 4) (at 0 0 0)
        (effects (font (size 1.27 1.27)) hide)
      )
      (property "ki_description" "Generic connector, single row, 01x02, script generated (kicad-library-utils/schlib/autogen/connector/)" (id 5) (at 0 0 0)
        (effects (font (size 1.27 1.27)) hide)
      )
      (property "ki_fp_filters" "Connector*:*_1x??_*" (id 6) (at 0 0 0)
        (effects (font (size 1.27 1.27)) hide)
      )
      (symbol "Conn_01x02_1_1"
        (rectangle (start -1.27 -2.413) (end 0 -2.667)
          (stroke (width 0.1524) (type default) (color 0 0 0 0))
          (fill (type none))
        )
        (rectangle (start -1.27 0.127) (end 0 -0.127)
          (stroke (width 0.1524) (type default) (color 0 0 0 0))
          (fill (type none))
        )
        (rectangle (start -1.27 1.27) (end 1.27 -3.81)
          (stroke (width 0.254) (type default) (color 0 0 0 0))
          (fill (type background))
        )
        (pin passive line (at -5.08 0 0) (length 3.81)
          (name "Pin_1" (effects (font (size 1.27 1.27))))
          (number "1" (effects (font (size 1.27 1.27))))
        )
        (pin passive line (at -5.08 -2.54 0) (length 3.81)
          (name "Pin_2" (effects (font (size 1.27 1.27))))
          (number "2" (effects (font (size 1.27 1.27))))
        )
      )
    )
    (symbol "Connector_Generic:Conn_01x03" (pin_names (offset 1.016) hide) (in_bom yes) (on_board yes)
      (property "Reference" "J" (id 0) (at 0 5.08 0)
        (effects (font (size 1.27 1.27)))
      )
      (property "Value" "Conn_01x03" (id 1) (at 0 -5.08 0)
        (effects (font (size 1.27 1.27)))
      )
      (property "Footprint" "" (id 2) (at 0 0 0)
        (effects (font (size 1.27 1.27)) hide)
      )
      (property "Datasheet" "~" (id 3) (at 0 0 0)
        (effects (font (size 1.27 1.27)) hide)
      )
      (property "ki_keywords" "connector" (id 4) (at 0 0 0)
        (effects (font (size 1.27 1.27)) hide)
      )
      (property "ki_description" "Generic connector, single row, 01x03, script generated (kicad-library-utils/schlib/autogen/connector/)" (id 5) (at 0 0 0)
        (effects (font (size 1.27 1.27)) hide)
      )
      (property "ki_fp_filters" "Connector*:*_1x??_*" (id 6) (at 0 0 0)
        (effects (font (size 1.27 1.27)) hide)
      )
      (symbol "Conn_01x03_1_1"
        (rectangle (start -1.27 -2.413) (end 0 -2.667)
          (stroke (width 0.1524) (type default) (color 0 0 0 0))
          (fill (type none))
        )
        (rectangle (start -1.27 0.127) (end 0 -0.127)
          (stroke (width 0.1524) (type default) (color 0 0 0 0))
          (fill (type none))
        )
        (rectangle (start -1.27 2.667) (end 0 2.413)
          (stroke (width 0.1524) (type default) (color 0 0 0 0))
          (fill (type none))
        )
        (rectangle (start -1.27 3.81) (end 1.27 -3.81)
          (stroke (width 0.254) (type default) (color 0 0 0 0))
          (fill (type background))
        )
        (pin passive line (at -5.08 2.54 0) (length 3.81)
          (name "Pin_1" (effects (font (size 1.27 1.27))))
          (number "1" (effects (font (size 1.27 1.27))))
        )
        (pin passive line (at -5.08 0 0) (length 3.81)
          (name "Pin_2" (effects (font (size 1.27 1.27))))
          (number "2" (effects (font (size 1.27 1.27))))
        )
        (pin passive line (at -5.08 -2.54 0) (length 3.81)
          (name "Pin_3" (effects (font (size 1.27 1.27))))
          (number "3" (effects (font (size 1.27 1.27))))
        )
      )
    )
    (symbol "Device:C" (pin_numbers hide) (pin_names (offset 0.254)) (in_bom yes) (on_board yes)
      (property "Reference" "C" (id 0) (at 0.635 2.54 0)
        (effects (font (size 1.27 1.27)) (justify left))
      )
      (property "Value" "C" (id 1) (at 0.635 -2.54 0)
        (effects (font (size 1.27 1.27)) (justify left))
      )
      (property "Footprint" "" (id 2) (at 0.9652 -3.81 0)
        (effects (font (size 1.27 1.27)) hide)
      )
      (property "Datasheet" "~" (id 3) (at 0 0 0)
        (effects (font (size 1.27 1.27)) hide)
      )
      (property "ki_keywords" "cap capacitor" (id 4) (at 0 0 0)
        (effects (font (size 1.27 1.27)) hide)
      )
      (property "ki_description" "Unpolarized capacitor" (id 5) (at 0 0 0)
        (effects (font (size 1.27 1.27)) hide)
      )
      (property "ki_fp_filters" "C_*" (id 6) (at 0 0 0)
        (effects (font (size 1.27 1.27)) hide)
      )
      (symbol "C_0_1"
        (polyline
          (pts
            (xy -2.032 -0.762)
            (xy 2.032 -0.762)
          )
          (stroke (width 0.508) (type default) (color 0 0 0 0))
          (fill (type none))
        )
        (polyline
          (pts
            (xy -2.032 0.762)
            (xy 2.032 0.762)
          )
          (stroke (width 0.508) (type default) (color 0 0 0 0))
          (fill (type none))
        )
      )
      (symbol "C_1_1"
        (pin passive line (at 0 3.81 270) (length 2.794)
          (name "~" (effects (font (size 1.27 1.27))))
          (number "1" (effects (font (size 1.27 1.27))))
        )
        (pin passive line (at 0 -3.81 90) (length 2.794)
          (name "~" (effects (font (size 1.27 1.27))))
          (number "2" (effects (font (size 1.27 1.27))))
        )
      )
    )
    (symbol "Device:C_Polarized" (pin_numbers hide) (pin_names (offset 0.254)) (in_bom yes) (on_board yes)
      (property "Reference" "C" (id 0) (at 0.635 2.54 0)
        (effects (font (size 1.27 1.27)) (justify left))
      )
      (property "Value" "C_Polarized" (id 1) (at 0.635 -2.54 0)
        (effects (font (size 1.27 1.27)) (justify left))
      )
      (property "Footprint" "" (id 2) (at 0.9652 -3.81 0)
        (effects (font (size 1.27 1.27)) hide)
      )
      (property "Datasheet" "~" (id 3) (at 0 0 0)
        (effects (font (size 1.27 1.27)) hide)
      )
      (property "ki_keywords" "cap capacitor" (id 4) (at 0 0 0)
        (effects (font (size 1.27 1.27)) hide)
      )
      (property "ki_description" "Polarized capacitor" (id 5) (at 0 0 0)
        (effects (font (size 1.27 1.27)) hide)
      )
      (property "ki_fp_filters" "CP_*" (id 6) (at 0 0 0)
        (effects (font (size 1.27 1.27)) hide)
      )
      (symbol "C_Polarized_0_1"
        (rectangle (start -2.286 0.508) (end 2.286 1.016)
          (stroke (width 0) (type default) (color 0 0 0 0))
          (fill (type none))
        )
        (polyline
          (pts
            (xy -1.778 2.286)
            (xy -0.762 2.286)
          )
          (stroke (width 0) (type default) (color 0 0 0 0))
          (fill (type none))
        )
        (polyline
          (pts
            (xy -1.27 2.794)
            (xy -1.27 1.778)
          )
          (stroke (width 0) (type default) (color 0 0 0 0))
          (fill (type none))
        )
        (rectangle (start 2.286 -0.508) (end -2.286 -1.016)
          (stroke (width 0) (type default) (color 0 0 0 0))
          (fill (type outline))
        )
      )
      (symbol "C_Polarized_1_1"
        (pin passive line (at 0 3.81 270) (length 2.794)
          (name "~" (effects (font (size 1.27 1.27))))
          (number "1" (effects (font (size 1.27 1.27))))
        )
        (pin passive line (at 0 -3.81 90) (length 2.794)
          (name "~" (effects (font (size 1.27 1.27))))
          (number "2" (effects (font (size 1.27 1.27))))
        )
      )
    )
    (symbol "Device:R" (pin_numbers hide) (pin_names (offset 0)) (in_bom yes) (on_board yes)
      (property "Reference" "R" (id 0) (at 2.032 0 90)
        (effects (font (size 1.27 1.27)))
      )
      (property "Value" "R" (id 1) (at 0 0 90)
        (effects (font (size 1.27 1.27)))
      )
      (property "Footprint" "" (id 2) (at -1.778 0 90)
        (effects (font (size 1.27 1.27)) hide)
      )
      (property "Datasheet" "~" (id 3) (at 0 0 0)
        (effects (font (size 1.27 1.27)) hide)
      )
      (property "ki_keywords" "R res resistor" (id 4) (at 0 0 0)
        (effects (font (size 1.27 1.27)) hide)
      )
      (property "ki_description" "Resistor" (id 5) (at 0 0 0)
        (effects (font (size 1.27 1.27)) hide)
      )
      (property "ki_fp_filters" "R_*" (id 6) (at 0 0 0)
        (effects (font (size 1.27 1.27)) hide)
      )
      (symbol "R_0_1"
        (rectangle (start -1.016 -2.54) (end 1.016 2.54)
          (stroke (width 0.254) (type default) (color 0 0 0 0))
          (fill (type none))
        )
      )
      (symbol "R_1_1"
        (pin passive line (at 0 3.81 270) (length 1.27)
          (name "~" (effects (font (size 1.27 1.27))))
          (number "1" (effects (font (size 1.27 1.27))))
        )
        (pin passive line (at 0 -3.81 90) (length 1.27)
          (name "~" (effects (font (size 1.27 1.27))))
          (number "2" (effects (font (size 1.27 1.27))))
        )
      )
    )
    (symbol "Diode:1N4148W" (pin_numbers hide) (pin_names (offset 1.016) hide) (in_bom yes) (on_board yes)
      (property "Reference" "D" (id 0) (at 0 2.54 0)
        (effects (font (size 1.27 1.27)))
      )
      (property "Value" "1N4148W" (id 1) (at 0 -2.54 0)
        (effects (font (size 1.27 1.27)))
      )
      (property "Footprint" "Diode_SMD:D_SOD-123" (id 2) (at 0 -4.445 0)
        (effects (font (size 1.27 1.27)) hide)
      )
      (property "Datasheet" "https://www.vishay.com/docs/85748/1n4148w.pdf" (id 3) (at 0 0 0)
        (effects (font (size 1.27 1.27)) hide)
      )
      (property "ki_keywords" "diode" (id 4) (at 0 0 0)
        (effects (font (size 1.27 1.27)) hide)
      )
      (property "ki_description" "75V 0.15A Fast Switching Diode, SOD-123" (id 5) (at 0 0 0)
        (effects (font (size 1.27 1.27)) hide)
      )
      (property "ki_fp_filters" "D*SOD?123*" (id 6) (at 0 0 0)
        (effects (font (size 1.27 1.27)) hide)
      )
      (symbol "1N4148W_0_1"
        (polyline
          (pts
            (xy -1.27 1.27)
            (xy -1.27 -1.27)
          )
          (stroke (width 0.254) (type default) (color 0 0 0 0))
          (fill (type none))
        )
        (polyline
          (pts
            (xy 1.27 0)
            (xy -1.27 0)
          )
          (stroke (width 0) (type default) (color 0 0 0 0))
          (fill (type none))
        )
        (polyline
          (pts
            (xy 1.27 1.27)
            (xy 1.27 -1.27)
            (xy -1.27 0)
            (xy 1.27 1.27)
          )
          (stroke (width 0.254) (type default) (color 0 0 0 0))
          (fill (type none))
        )
      )
      (symbol "1N4148W_1_1"
        (pin passive line (at -3.81 0 0) (length 2.54)
          (name "K" (effects (font (size 1.27 1.27))))
          (number "1" (effects (font (size 1.27 1.27))))
        )
        (pin passive line (at 3.81 0 180) (length 2.54)
          (name "A" (effects (font (size 1.27 1.27))))
          (number "2" (effects (font (size 1.27 1.27))))
        )
      )
    )
    (symbol "Regulator_Linear:L7809" (pin_names (offset 0.254)) (in_bom yes) (on_board yes)
      (property "Reference" "U" (id 0) (at -3.81 3.175 0)
        (effects (font (size 1.27 1.27)))
      )
      (property "Value" "L7809" (id 1) (at 0 3.175 0)
        (effects (font (size 1.27 1.27)) (justify left))
      )
      (property "Footprint" "" (id 2) (at 0.635 -3.81 0)
        (effects (font (size 1.27 1.27) italic) (justify left) hide)
      )
      (property "Datasheet" "http://www.st.com/content/ccc/resource/technical/document/datasheet/41/4f/b3/b0/12/d4/47/88/CD00000444.pdf/files/CD00000444.pdf/jcr:content/translations/en.CD00000444.pdf" (id 3) (at 0 -1.27 0)
        (effects (font (size 1.27 1.27)) hide)
      )
      (property "ki_keywords" "Voltage Regulator 1.5A Positive" (id 4) (at 0 0 0)
        (effects (font (size 1.27 1.27)) hide)
      )
      (property "ki_description" "Positive 1.5A 35V Linear Regulator, Fixed Output 9V, TO-220/TO-263/TO-252" (id 5) (at 0 0 0)
        (effects (font (size 1.27 1.27)) hide)
      )
      (property "ki_fp_filters" "TO?252* TO?263* TO?220*" (id 6) (at 0 0 0)
        (effects (font (size 1.27 1.27)) hide)
      )
      (symbol "L7809_0_1"
        (rectangle (start -5.08 1.905) (end 5.08 -5.08)
          (stroke (width 0.254) (type default) (color 0 0 0 0))
          (fill (type background))
        )
      )
      (symbol "L7809_1_1"
        (pin power_in line (at -7.62 0 0) (length 2.54)
          (name "IN" (effects (font (size 1.27 1.27))))
          (number "1" (effects (font (size 1.27 1.27))))
        )
        (pin power_in line (at 0 -7.62 90) (length 2.54)
          (name "GND" (effects (font (size 1.27 1.27))))
          (number "2" (effects (font (size 1.27 1.27))))
        )
        (pin power_out line (at 7.62 0 180) (length 2.54)
          (name "OUT" (effects (font (size 1.27 1.27))))
          (number "3" (effects (font (size 1.27 1.27))))
        )
      )
    )
    (symbol "Regulator_Linear:L78L05_SOT89" (pin_names (offset 0.254)) (in_bom yes) (on_board yes)
      (property "Reference" "U" (id 0) (at -3.81 3.175 0)
        (effects (font (size 1.27 1.27)))
      )
      (property "Value" "L78L05_SOT89" (id 1) (at -0.635 3.175 0)
        (effects (font (size 1.27 1.27)) (justify left))
      )
      (property "Footprint" "Package_TO_SOT_SMD:SOT-89-3" (id 2) (at 0 5.08 0)
        (effects (font (size 1.27 1.27) italic) hide)
      )
      (property "Datasheet" "http://www.st.com/content/ccc/resource/technical/document/datasheet/15/55/e5/aa/23/5b/43/fd/CD00000446.pdf/files/CD00000446.pdf/jcr:content/translations/en.CD00000446.pdf" (id 3) (at 0 -1.27 0)
        (effects (font (size 1.27 1.27)) hide)
      )
      (property "ki_keywords" "Voltage Regulator 100mA Positive" (id 4) (at 0 0 0)
        (effects (font (size 1.27 1.27)) hide)
      )
      (property "ki_description" "Positive 100mA 30V Linear Regulator, Fixed Output 5V, SOT-89" (id 5) (at 0 0 0)
        (effects (font (size 1.27 1.27)) hide)
      )
      (property "ki_fp_filters" "SOT?89*" (id 6) (at 0 0 0)
        (effects (font (size 1.27 1.27)) hide)
      )
      (symbol "L78L05_SOT89_0_1"
        (rectangle (start -5.08 1.905) (end 5.08 -5.08)
          (stroke (width 0.254) (type default) (color 0 0 0 0))
          (fill (type background))
        )
      )
      (symbol "L78L05_SOT89_1_1"
        (pin power_out line (at 7.62 0 180) (length 2.54)
          (name "OUT" (effects (font (size 1.27 1.27))))
          (number "1" (effects (font (size 1.27 1.27))))
        )
        (pin power_in line (at 0 -7.62 90) (length 2.54)
          (name "GND" (effects (font (size 1.27 1.27))))
          (number "2" (effects (font (size 1.27 1.27))))
        )
        (pin power_in line (at -7.62 0 0) (length 2.54)
          (name "IN" (effects (font (size 1.27 1.27))))
          (number "3" (effects (font (size 1.27 1.27))))
        )
      )
    )
    (symbol "Transistor_FET:2N7002" (pin_names hide) (in_bom yes) (on_board yes)
      (property "Reference" "Q" (id 0) (at 5.08 1.905 0)
        (effects (font (size 1.27 1.27)) (justify left))
      )
      (property "Value" "2N7002" (id 1) (at 5.08 0 0)
        (effects (font (size 1.27 1.27)) (justify left))
      )
      (property "Footprint" "Package_TO_SOT_SMD:SOT-23" (id 2) (at 5.08 -1.905 0)
        (effects (font (size 1.27 1.27) italic) (justify left) hide)
      )
      (property "Datasheet" "https://www.onsemi.com/pub/Collateral/NDS7002A-D.PDF" (id 3) (at 0 0 0)
        (effects (font (size 1.27 1.27)) (justify left) hide)
      )
      (property "ki_keywords" "N-Channel Switching MOSFET" (id 4) (at 0 0 0)
        (effects (font (size 1.27 1.27)) hide)
      )
      (property "ki_description" "0.115A Id, 60V Vds, N-Channel MOSFET, SOT-23" (id 5) (at 0 0 0)
        (effects (font (size 1.27 1.27)) hide)
      )
      (property "ki_fp_filters" "SOT?23*" (id 6) (at 0 0 0)
        (effects (font (size 1.27 1.27)) hide)
      )
      (symbol "2N7002_0_1"
        (polyline
          (pts
            (xy 0.254 0)
            (xy -2.54 0)
          )
          (stroke (width 0) (type default) (color 0 0 0 0))
          (fill (type none))
        )
        (polyline
          (pts
            (xy 0.254 1.905)
            (xy 0.254 -1.905)
          )
          (stroke (width 0.254) (type default) (color 0 0 0 0))
          (fill (type none))
        )
        (polyline
          (pts
            (xy 0.762 -1.27)
            (xy 0.762 -2.286)
          )
          (stroke (width 0.254) (type default) (color 0 0 0 0))
          (fill (type none))
        )
        (polyline
          (pts
            (xy 0.762 0.508)
            (xy 0.762 -0.508)
          )
          (stroke (width 0.254) (type default) (color 0 0 0 0))
          (fill (type none))
        )
        (polyline
          (pts
            (xy 0.762 2.286)
            (xy 0.762 1.27)
          )
          (stroke (width 0.254) (type default) (color 0 0 0 0))
          (fill (type none))
        )
        (polyline
          (pts
            (xy 2.54 2.54)
            (xy 2.54 1.778)
          )
          (stroke (width 0) (type default) (color 0 0 0 0))
          (fill (type none))
        )
        (polyline
          (pts
            (xy 2.54 -2.54)
            (xy 2.54 0)
            (xy 0.762 0)
          )
          (stroke (width 0) (type default) (color 0 0 0 0))
          (fill (type none))
        )
        (polyline
          (pts
            (xy 0.762 -1.778)
            (xy 3.302 -1.778)
            (xy 3.302 1.778)
            (xy 0.762 1.778)
          )
          (stroke (width 0) (type default) (color 0 0 0 0))
          (fill (type none))
        )
        (polyline
          (pts
            (xy 1.016 0)
            (xy 2.032 0.381)
            (xy 2.032 -0.381)
            (xy 1.016 0)
          )
          (stroke (width 0) (type default) (color 0 0 0 0))
          (fill (type outline))
        )
        (polyline
          (pts
            (xy 2.794 0.508)
            (xy 2.921 0.381)
            (xy 3.683 0.381)
            (xy 3.81 0.254)
          )
          (stroke (width 0) (type default) (color 0 0 0 0))
          (fill (type none))
        )
        (polyline
          (pts
            (xy 3.302 0.381)
            (xy 2.921 -0.254)
            (xy 3.683 -0.254)
            (xy 3.302 0.381)
          )
          (stroke (width 0) (type default) (color 0 0 0 0))
          (fill (type none))
        )
        (circle (center 1.651 0) (radius 2.794)
          (stroke (width 0.254) (type default) (color 0 0 0 0))
          (fill (type none))
        )
        (circle (center 2.54 -1.778) (radius 0.254)
          (stroke (width 0) (type default) (color 0 0 0 0))
          (fill (type outline))
        )
        (circle (center 2.54 1.778) (radius 0.254)
          (stroke (width 0) (type default) (color 0 0 0 0))
          (fill (type outline))
        )
      )
      (symbol "2N7002_1_1"
        (pin input line (at -5.08 0 0) (length 2.54)
          (name "G" (effects (font (size 1.27 1.27))))
          (number "1" (effects (font (size 1.27 1.27))))
        )
        (pin passive line (at 2.54 -5.08 90) (length 2.54)
          (name "S" (effects (font (size 1.27 1.27))))
          (number "2" (effects (font (size 1.27 1.27))))
        )
        (pin passive line (at 2.54 5.08 270) (length 2.54)
          (name "D" (effects (font (size 1.27 1.27))))
          (number "3" (effects (font (size 1.27 1.27))))
        )
      )
    )
    (symbol "power:GND" (power) (pin_names (offset 0)) (in_bom yes) (on_board yes)
      (property "Reference" "#PWR" (id 0) (at 0 -6.35 0)
        (effects (font (size 1.27 1.27)) hide)
      )
      (property "Value" "GND" (id 1) (at 0 -3.81 0)
        (effects (font (size 1.27 1.27)))
      )
      (property "Footprint" "" (id 2) (at 0 0 0)
        (effects (font (size 1.27 1.27)) hide)
      )
      (property "Datasheet" "" (id 3) (at 0 0 0)
        (effects (font (size 1.27 1.27)) hide)
      )
      (property "ki_keywords" "power-flag" (id 4) (at 0 0 0)
        (effects (font (size 1.27 1.27)) hide)
      )
      (property "ki_description" "Power symbol creates a global label with name \"GND\" , ground" (id 5) (at 0 0 0)
        (effects (font (size 1.27 1.27)) hide)
      )
      (symbol "GND_0_1"
        (polyline
          (pts
            (xy 0 0)
            (xy 0 -1.27)
            (xy 1.27 -1.27)
            (xy 0 -2.54)
            (xy -1.27 -1.27)
            (xy 0 -1.27)
          )
          (stroke (width 0) (type default) (color 0 0 0 0))
          (fill (type none))
        )
      )
      (symbol "GND_1_1"
        (pin power_in line (at 0 0 270) (length 0) hide
          (name "GND" (effects (font (size 1.27 1.27))))
          (number "1" (effects (font (size 1.27 1.27))))
        )
      )
    )
  )

  (junction (at 60.96 50.8) (diameter 0) (color 0 0 0 0)
    (uuid 136575b5-fb88-440b-abe6-5317cc05a249)
  )
  (junction (at 76.2 55.88) (diameter 0) (color 0 0 0 0)
    (uuid 1ff00e31-7e37-4614-929d-892094529ed0)
  )
  (junction (at 96.52 53.34) (diameter 0) (color 0 0 0 0)
    (uuid 228324d8-b075-42e5-8e80-c6e01392a6cf)
  )
  (junction (at 234.95 59.69) (diameter 0) (color 0 0 0 0)
    (uuid 2f7eca62-eda8-4688-8943-eef709bd7317)
  )
  (junction (at 63.5 71.12) (diameter 0) (color 0 0 0 0)
    (uuid 2ff759bd-7b8d-487f-bbe8-11169cee3781)
  )
  (junction (at 110.49 60.96) (diameter 0) (color 0 0 0 0)
    (uuid 45c2e508-58c8-4fed-a798-f8afd9f7c81c)
  )
  (junction (at 171.45 115.57) (diameter 0) (color 0 0 0 0)
    (uuid 54df0a08-fe0d-412a-97e4-b081c347621c)
  )
  (junction (at 60.96 55.88) (diameter 0) (color 0 0 0 0)
    (uuid 5db10976-de50-4f9d-a2c3-7ef6de3063a7)
  )
  (junction (at 80.01 68.58) (diameter 0) (color 0 0 0 0)
    (uuid 6a14eed9-c2a0-4a74-87b6-21320897f192)
  )
  (junction (at 87.63 71.12) (diameter 0) (color 0 0 0 0)
    (uuid 6cacdbd9-49ef-431b-9e21-b5f98907e7c4)
  )
  (junction (at 219.71 107.95) (diameter 0) (color 0 0 0 0)
    (uuid 7a15f1a6-fab7-463b-a6d5-6afbdd606f54)
  )
  (junction (at 76.2 53.34) (diameter 0) (color 0 0 0 0)
    (uuid 8bef3269-07f2-4003-98a5-e0476df200f9)
  )
  (junction (at 57.15 71.12) (diameter 0) (color 0 0 0 0)
    (uuid 8cbeacf6-dad4-435b-aef4-1670b87bb73a)
  )
  (junction (at 146.05 116.84) (diameter 0) (color 0 0 0 0)
    (uuid aaaef698-7b48-4867-97ae-3a4b1241e269)
  )
  (junction (at 201.93 60.96) (diameter 0) (color 0 0 0 0)
    (uuid b51a0628-7e5e-4079-b5c5-e54d2bf71791)
  )
  (junction (at 181.61 115.57) (diameter 0) (color 0 0 0 0)
    (uuid b581f373-d3ea-4019-9be4-8c63331e0e5a)
  )
  (junction (at 199.39 60.96) (diameter 0) (color 0 0 0 0)
    (uuid c12e35f9-90c9-4648-80b1-62a4ef689c17)
  )
  (junction (at 187.96 107.95) (diameter 0) (color 0 0 0 0)
    (uuid ca2d2b70-c765-4c29-8d91-f07777460d4d)
  )
  (junction (at 63.5 78.74) (diameter 0) (color 0 0 0 0)
    (uuid e6d585be-0e9d-47cc-bd2b-7add72b2f440)
  )

  (wire (pts (xy 219.71 107.95) (xy 223.52 107.95))
    (stroke (width 0) (type default) (color 0 0 0 0))
    (uuid 001ca178-d7fe-47f8-ad64-ddc6e1d624af)
  )
  (wire (pts (xy 187.96 66.04) (xy 194.31 66.04))
    (stroke (width 0) (type default) (color 0 0 0 0))
    (uuid 01b5b740-1dc7-4690-9a01-91eb5429b283)
  )
  (wire (pts (xy 217.17 64.77) (xy 219.71 64.77))
    (stroke (width 0) (type default) (color 0 0 0 0))
    (uuid 06a1e9f1-deae-4237-8955-b69f0bb7ef87)
  )
  (wire (pts (xy 163.83 63.5) (xy 148.59 63.5))
    (stroke (width 0) (type default) (color 0 0 0 0))
    (uuid 10b20214-515e-42bb-84a6-3f883f19ddfd)
  )
  (wire (pts (xy 96.52 53.34) (xy 156.21 53.34))
    (stroke (width 0) (type default) (color 0 0 0 0))
    (uuid 118ef550-37b4-4768-924d-51bb096e3919)
  )
  (wire (pts (xy 63.5 78.74) (xy 80.01 78.74))
    (stroke (width 0) (type default) (color 0 0 0 0))
    (uuid 12d5862b-49be-4857-8e2f-8f73316a5753)
  )
  (wire (pts (xy 187.96 107.95) (xy 187.96 127))
    (stroke (width 0) (type default) (color 0 0 0 0))
    (uuid 14b35cec-de95-4847-a7cd-501df7c3f979)
  )
  (wire (pts (xy 60.96 39.37) (xy 60.96 50.8))
    (stroke (width 0) (type default) (color 0 0 0 0))
    (uuid 1593efeb-4759-429e-87bc-982a1c6a8eb7)
  )
  (wire (pts (xy 189.23 48.26) (xy 199.39 48.26))
    (stroke (width 0) (type default) (color 0 0 0 0))
    (uuid 19f737c1-d7a0-4360-ac49-2b34bc512eee)
  )
  (wire (pts (xy 57.15 71.12) (xy 63.5 71.12))
    (stroke (width 0) (type default) (color 0 0 0 0))
    (uuid 240c7ad8-c887-4a6a-bee5-cbc389a79bb4)
  )
  (wire (pts (xy 224.79 54.61) (xy 224.79 59.69))
    (stroke (width 0) (type default) (color 0 0 0 0))
    (uuid 24690e81-a040-4d20-a620-9cfe911b05b6)
  )
  (wire (pts (xy 146.05 116.84) (xy 146.05 127))
    (stroke (width 0) (type default) (color 0 0 0 0))
    (uuid 2d4a0d9f-1501-40f8-a0ee-15ee69028b26)
  )
  (wire (pts (xy 146.05 58.42) (xy 146.05 63.5))
    (stroke (width 0) (type default) (color 0 0 0 0))
    (uuid 33805502-1684-44c3-9dd5-d32c88a89b36)
  )
  (wire (pts (xy 57.15 71.12) (xy 57.15 58.42))
    (stroke (width 0) (type default) (color 0 0 0 0))
    (uuid 358f0bbe-cc47-4fa1-b3c8-33af74d9515f)
  )
  (wire (pts (xy 60.96 63.5) (xy 60.96 55.88))
    (stroke (width 0) (type default) (color 0 0 0 0))
    (uuid 3808a36f-8661-457d-b134-4fa465464125)
  )
  (wire (pts (xy 219.71 107.95) (xy 219.71 127))
    (stroke (width 0) (type default) (color 0 0 0 0))
    (uuid 38b6cfd0-3522-4f01-9f12-dcea5a5d20fc)
  )
  (wire (pts (xy 76.2 50.8) (xy 76.2 53.34))
    (stroke (width 0) (type default) (color 0 0 0 0))
    (uuid 3d0639f8-f684-4a0c-ad0c-7a18cb7a39d8)
  )
  (wire (pts (xy 80.01 78.74) (xy 80.01 68.58))
    (stroke (width 0) (type default) (color 0 0 0 0))
    (uuid 4118ba43-1fb1-4270-b4cd-ea3f37ff3b1c)
  )
  (wire (pts (xy 137.16 68.58) (xy 137.16 74.93))
    (stroke (width 0) (type default) (color 0 0 0 0))
    (uuid 435e8585-0aa6-45a8-a095-bd4d51e05765)
  )
  (wire (pts (xy 114.3 66.04) (xy 110.49 66.04))
    (stroke (width 0) (type default) (color 0 0 0 0))
    (uuid 438c7226-d779-4ee8-a3e9-7b4ef40c137d)
  )
  (wire (pts (xy 96.52 39.37) (xy 80.01 39.37))
    (stroke (width 0) (type default) (color 0 0 0 0))
    (uuid 449f6118-0d90-4e5f-91a6-2d0fd0775fd4)
  )
  (wire (pts (xy 63.5 80.01) (xy 63.5 78.74))
    (stroke (width 0) (type default) (color 0 0 0 0))
    (uuid 4652937e-a3f4-4621-90f5-ce11000bf55c)
  )
  (wire (pts (xy 227.33 64.77) (xy 229.87 64.77))
    (stroke (width 0) (type default) (color 0 0 0 0))
    (uuid 4e1e8ae1-4c7e-4860-b074-49a32d13bec3)
  )
  (wire (pts (xy 224.79 59.69) (xy 234.95 59.69))
    (stroke (width 0) (type default) (color 0 0 0 0))
    (uuid 51983ae2-1b95-42a1-abb7-edb9ee12c7a6)
  )
  (wire (pts (xy 181.61 115.57) (xy 203.2 115.57))
    (stroke (width 0) (type default) (color 0 0 0 0))
    (uuid 556de999-b0ff-4de9-b124-c77804bd6378)
  )
  (wire (pts (xy 217.17 60.96) (xy 201.93 60.96))
    (stroke (width 0) (type default) (color 0 0 0 0))
    (uuid 57bdabbe-9c03-49ae-bb22-ae1503463d66)
  )
  (wire (pts (xy 179.07 107.95) (xy 187.96 107.95))
    (stroke (width 0) (type default) (color 0 0 0 0))
    (uuid 5a2a6323-69c1-406a-9b0f-882f98f10cd3)
  )
  (wire (pts (xy 189.23 55.88) (xy 189.23 60.96))
    (stroke (width 0) (type default) (color 0 0 0 0))
    (uuid 643a911a-4910-43f5-badf-a3522227b25f)
  )
  (wire (pts (xy 96.52 53.34) (xy 96.52 39.37))
    (stroke (width 0) (type default) (color 0 0 0 0))
    (uuid 64dde4cb-9f5a-426e-9fbf-c3231713ba2c)
  )
  (wire (pts (xy 104.14 72.39) (xy 104.14 71.12))
    (stroke (width 0) (type default) (color 0 0 0 0))
    (uuid 64ef84c0-3185-4510-ab1d-7a0ac764ac3a)
  )
  (wire (pts (xy 52.07 76.2) (xy 57.15 76.2))
    (stroke (width 0) (type default) (color 0 0 0 0))
    (uuid 71017276-9382-4654-8bc4-327cdf51eeca)
  )
  (wire (pts (xy 146.05 116.84) (xy 146.05 107.95))
    (stroke (width 0) (type default) (color 0 0 0 0))
    (uuid 7b73158d-65a3-4c4b-af50-eae77d55a306)
  )
  (wire (pts (xy 163.83 74.93) (xy 163.83 63.5))
    (stroke (width 0) (type default) (color 0 0 0 0))
    (uuid 7bf652c3-7135-477d-a71e-51a60e5afec8)
  )
  (wire (pts (xy 129.54 63.5) (xy 143.51 63.5))
    (stroke (width 0) (type default) (color 0 0 0 0))
    (uuid 7d3651ea-cd73-4dff-8d89-163524c00791)
  )
  (wire (pts (xy 171.45 66.04) (xy 171.45 55.88))
    (stroke (width 0) (type default) (color 0 0 0 0))
    (uuid 81017fbc-d56f-4ab7-8cc9-9592deff63cb)
  )
  (wire (pts (xy 210.82 107.95) (xy 219.71 107.95))
    (stroke (width 0) (type default) (color 0 0 0 0))
    (uuid 8114ee34-cd4f-41ad-91f8-43429f5b9620)
  )
  (wire (pts (xy 57.15 58.42) (xy 50.8 58.42))
    (stroke (width 0) (type default) (color 0 0 0 0))
    (uuid 89754d71-2a03-4b69-a77c-3e48799d6a68)
  )
  (wire (pts (xy 217.17 64.77) (xy 217.17 60.96))
    (stroke (width 0) (type default) (color 0 0 0 0))
    (uuid 8cacb3a7-efec-4084-97fc-f3701931223e)
  )
  (wire (pts (xy 80.01 60.96) (xy 110.49 60.96))
    (stroke (width 0) (type default) (color 0 0 0 0))
    (uuid 8cc07584-b8ab-4bbc-a199-2a83a074ab7f)
  )
  (wire (pts (xy 137.16 74.93) (xy 163.83 74.93))
    (stroke (width 0) (type default) (color 0 0 0 0))
    (uuid 8dffe0c8-21b9-4072-ac44-e29ef9e06d59)
  )
  (wire (pts (xy 149.86 119.38) (xy 149.86 115.57))
    (stroke (width 0) (type default) (color 0 0 0 0))
    (uuid 8e60e1b9-7f9f-43b3-9a4d-9efbf36eb201)
  )
  (wire (pts (xy 76.2 63.5) (xy 76.2 55.88))
    (stroke (width 0) (type default) (color 0 0 0 0))
    (uuid 980d7ea7-3ff9-498b-b91b-57f4a8ccee38)
  )
  (wire (pts (xy 123.19 116.84) (xy 146.05 116.84))
    (stroke (width 0) (type default) (color 0 0 0 0))
    (uuid 9c2b828e-4b31-4288-a111-5c98b6a96235)
  )
  (wire (pts (xy 63.5 71.12) (xy 87.63 71.12))
    (stroke (width 0) (type default) (color 0 0 0 0))
    (uuid 9d94210d-2e7c-4542-8d38-0ef92a8448a2)
  )
  (wire (pts (xy 234.95 59.69) (xy 237.49 59.69))
    (stroke (width 0) (type default) (color 0 0 0 0))
    (uuid a0f483e0-b00f-48c5-9d9c-5272e4544ae4)
  )
  (wire (pts (xy 199.39 60.96) (xy 201.93 60.96))
    (stroke (width 0) (type default) (color 0 0 0 0))
    (uuid a5f59945-d764-4a04-9aa9-69c1346ae026)
  )
  (wire (pts (xy 187.96 107.95) (xy 195.58 107.95))
    (stroke (width 0) (type default) (color 0 0 0 0))
    (uuid a789ccb1-a0e0-4093-b108-9c97cecc8043)
  )
  (wire (pts (xy 76.2 55.88) (xy 76.2 53.34))
    (stroke (width 0) (type default) (color 0 0 0 0))
    (uuid a8c93a1f-3054-4cd4-9c39-9c311c33b7fb)
  )
  (wire (pts (xy 180.34 66.04) (xy 171.45 66.04))
    (stroke (width 0) (type default) (color 0 0 0 0))
    (uuid ab492995-ef7e-4f17-bc61-77f54264cb02)
  )
  (wire (pts (xy 52.07 78.74) (xy 63.5 78.74))
    (stroke (width 0) (type default) (color 0 0 0 0))
    (uuid ac7adea2-1c30-4d49-9356-ddb56f771d09)
  )
  (wire (pts (xy 110.49 66.04) (xy 110.49 60.96))
    (stroke (width 0) (type default) (color 0 0 0 0))
    (uuid b62cbcb1-5898-44b8-9559-1af6d629457b)
  )
  (wire (pts (xy 87.63 71.12) (xy 104.14 71.12))
    (stroke (width 0) (type default) (color 0 0 0 0))
    (uuid bb125298-970e-4129-82a0-39fc1d78919b)
  )
  (wire (pts (xy 80.01 68.58) (xy 137.16 68.58))
    (stroke (width 0) (type default) (color 0 0 0 0))
    (uuid c0bfc999-9706-44de-9cbd-4c64012b3153)
  )
  (wire (pts (xy 71.12 63.5) (xy 76.2 63.5))
    (stroke (width 0) (type default) (color 0 0 0 0))
    (uuid c7eecab7-8dc6-4912-8b64-ae9812f5e0da)
  )
  (wire (pts (xy 81.28 55.88) (xy 76.2 55.88))
    (stroke (width 0) (type default) (color 0 0 0 0))
    (uuid cc8c0be4-6cd7-4919-9b04-08bb9bec2108)
  )
  (wire (pts (xy 60.96 50.8) (xy 60.96 55.88))
    (stroke (width 0) (type default) (color 0 0 0 0))
    (uuid cc9dd676-a02d-4e3e-a323-2bb125cf0008)
  )
  (wire (pts (xy 72.39 39.37) (xy 60.96 39.37))
    (stroke (width 0) (type default) (color 0 0 0 0))
    (uuid ceeb9c53-3901-4d0a-9ec7-48a467f1f324)
  )
  (wire (pts (xy 123.19 119.38) (xy 149.86 119.38))
    (stroke (width 0) (type default) (color 0 0 0 0))
    (uuid cfc885d9-3df1-45f8-8d43-368396ccac3b)
  )
  (wire (pts (xy 80.01 68.58) (xy 80.01 60.96))
    (stroke (width 0) (type default) (color 0 0 0 0))
    (uuid d9a30c0d-be72-4a27-9f38-8b1ebf1b1ed9)
  )
  (wire (pts (xy 110.49 60.96) (xy 114.3 60.96))
    (stroke (width 0) (type default) (color 0 0 0 0))
    (uuid e1f5313b-efcd-4f7d-9da5-0c6e54dc1a17)
  )
  (wire (pts (xy 234.95 49.53) (xy 234.95 59.69))
    (stroke (width 0) (type default) (color 0 0 0 0))
    (uuid e3b4043f-739f-4ffb-8f06-8c4ddd202979)
  )
  (wire (pts (xy 146.05 107.95) (xy 163.83 107.95))
    (stroke (width 0) (type default) (color 0 0 0 0))
    (uuid e515a69f-4568-485e-aecf-83dad8a6ac0c)
  )
  (wire (pts (xy 199.39 50.8) (xy 199.39 60.96))
    (stroke (width 0) (type default) (color 0 0 0 0))
    (uuid e8d2c107-2b35-4cea-ba26-5630aaa74ea6)
  )
  (wire (pts (xy 224.79 46.99) (xy 234.95 46.99))
    (stroke (width 0) (type default) (color 0 0 0 0))
    (uuid e8fa9046-643f-4eed-b8c6-3cc03de214ed)
  )
  (wire (pts (xy 81.28 50.8) (xy 76.2 50.8))
    (stroke (width 0) (type default) (color 0 0 0 0))
    (uuid eb784025-1e64-4416-91a9-efdd757f7b6c)
  )
  (wire (pts (xy 171.45 115.57) (xy 181.61 115.57))
    (stroke (width 0) (type default) (color 0 0 0 0))
    (uuid eb999cb7-124e-4454-ad1f-39ca41bfd25c)
  )
  (wire (pts (xy 149.86 115.57) (xy 171.45 115.57))
    (stroke (width 0) (type default) (color 0 0 0 0))
    (uuid ef9cd5c4-1418-4a71-948c-98f6f9f22a4c)
  )
  (wire (pts (xy 57.15 76.2) (xy 57.15 71.12))
    (stroke (width 0) (type default) (color 0 0 0 0))
    (uuid f6f4f47b-ea21-4028-bbfd-4fe525c5bcbd)
  )
  (wire (pts (xy 156.21 58.42) (xy 146.05 58.42))
    (stroke (width 0) (type default) (color 0 0 0 0))
    (uuid f712000b-fd35-4f0f-920f-cb2eb499fd7c)
  )
  (wire (pts (xy 189.23 60.96) (xy 199.39 60.96))
    (stroke (width 0) (type default) (color 0 0 0 0))
    (uuid f7de7f82-f64d-42e9-ac19-1fae1fa0c2e1)
  )
  (wire (pts (xy 63.5 63.5) (xy 60.96 63.5))
    (stroke (width 0) (type default) (color 0 0 0 0))
    (uuid fd201ee4-7bd8-440f-9a10-279309c88670)
  )

  (label "5v" (at 54.61 76.2 180)
    (effects (font (size 1.27 1.27)) (justify right bottom))
    (uuid 4989e4ec-801e-4626-917a-511b4f235359)
  )
  (label "24v" (at 152.4 107.95 0)
    (effects (font (size 1.27 1.27)) (justify left bottom))
    (uuid 7516e4f8-1a01-47fa-b2d8-315ab1ed179b)
  )
  (label "5v" (at 223.52 107.95 180)
    (effects (font (size 1.27 1.27)) (justify right bottom))
    (uuid a0374795-1944-4726-9431-436b43158592)
  )
  (label "9v" (at 190.5 48.26 0)
    (effects (font (size 1.27 1.27)) (justify left bottom))
    (uuid ab862204-253a-4347-a884-f0f10660074b)
  )
  (label "24v" (at 227.33 46.99 0)
    (effects (font (size 1.27 1.27)) (justify left bottom))
    (uuid bf46b026-3c9e-4e45-b1b1-f755c36f99fc)
  )
  (label "9v" (at 190.5 107.95 0)
    (effects (font (size 1.27 1.27)) (justify left bottom))
    (uuid ed0aa8d2-5d76-46d5-9355-c223bd316419)
  )

  (symbol (lib_id "Connector_Generic:Conn_01x03") (at 146.05 68.58 90) (mirror x) (unit 1)
    (in_bom yes) (on_board yes) (fields_autoplaced)
    (uuid 03b308b1-c47f-4eed-883f-9cf03f646b7b)
    (property "Reference" "J3" (id 0) (at 150.622 67.6715 90)
      (effects (font (size 1.27 1.27)) (justify right))
    )
    (property "Value" "Conn_01x03" (id 1) (at 150.622 70.4466 90)
      (effects (font (size 1.27 1.27)) (justify right))
    )
    (property "Footprint" "Connector_PinHeader_2.54mm:PinHeader_1x03_P2.54mm_Vertical" (id 2) (at 146.05 68.58 0)
      (effects (font (size 1.27 1.27)) hide)
    )
    (property "Datasheet" "~" (id 3) (at 146.05 68.58 0)
      (effects (font (size 1.27 1.27)) hide)
    )
    (pin "1" (uuid 57aa20e2-d0fc-4461-ac68-98b1f6d6c97d))
    (pin "2" (uuid ab4ee635-9102-4b2d-8817-8ec7b60b254a))
    (pin "3" (uuid d48d5758-de85-4566-b3c2-3b4c10fdede0))
  )

  (symbol (lib_id "Device:C") (at 104.14 76.2 0) (unit 1)
    (in_bom yes) (on_board yes) (fields_autoplaced)
    (uuid 0787c923-4e10-46a8-adf3-fd0e8127376e)
    (property "Reference" "C4" (id 0) (at 107.061 75.2915 0)
      (effects (font (size 1.27 1.27)) (justify left))
    )
    (property "Value" "0.1u" (id 1) (at 107.061 78.0666 0)
      (effects (font (size 1.27 1.27)) (justify left))
    )
    (property "Footprint" "Capacitor_SMD:C_0805_2012Metric" (id 2) (at 105.1052 80.01 0)
      (effects (font (size 1.27 1.27)) hide)
    )
    (property "Datasheet" "~" (id 3) (at 104.14 76.2 0)
      (effects (font (size 1.27 1.27)) hide)
    )
    (pin "1" (uuid 477a74a1-72a6-4c68-83a5-e91006aa9809))
    (pin "2" (uuid a3819a3e-dcf7-474e-963a-30bf2ba6ebb9))
  )

  (symbol (lib_id "Device:R") (at 67.31 63.5 90) (unit 1)
    (in_bom yes) (on_board yes) (fields_autoplaced)
    (uuid 1ac507d6-1473-4dee-88e8-4ede4e009385)
    (property "Reference" "R2" (id 0) (at 67.31 58.5175 90))
    (property "Value" "10k" (id 1) (at 67.31 61.2926 90))
    (property "Footprint" "Resistor_SMD:R_0805_2012Metric" (id 2) (at 67.31 65.278 90)
      (effects (font (size 1.27 1.27)) hide)
    )
    (property "Datasheet" "~" (id 3) (at 67.31 63.5 0)
      (effects (font (size 1.27 1.27)) hide)
    )
    (pin "1" (uuid 7b14a964-1792-4d6b-89e6-0690f278e233))
    (pin "2" (uuid 4ecb2b4a-11ce-4826-a275-6b3d9bfe4828))
  )

  (symbol (lib_id "power:GND") (at 87.63 96.52 0) (unit 1)
    (in_bom yes) (on_board yes) (fields_autoplaced)
    (uuid 2c110474-2739-470a-b7b9-e510e2240863)
    (property "Reference" "#PWR0107" (id 0) (at 87.63 102.87 0)
      (effects (font (size 1.27 1.27)) hide)
    )
    (property "Value" "GND" (id 1) (at 87.63 101.0825 0))
    (property "Footprint" "" (id 2) (at 87.63 96.52 0)
      (effects (font (size 1.27 1.27)) hide)
    )
    (property "Datasheet" "" (id 3) (at 87.63 96.52 0)
      (effects (font (size 1.27 1.27)) hide)
    )
    (pin "1" (uuid 5c40fb3c-b53b-4b41-bc41-0351850cab58))
  )

  (symbol (lib_id "Device:R") (at 223.52 64.77 90) (unit 1)
    (in_bom yes) (on_board yes) (fields_autoplaced)
    (uuid 37100c05-589b-4140-b4fc-573ed1548a00)
    (property "Reference" "R4" (id 0) (at 223.52 59.7875 90))
    (property "Value" "100" (id 1) (at 223.52 62.5626 90))
    (property "Footprint" "Resistor_SMD:R_0805_2012Metric" (id 2) (at 223.52 66.548 90)
      (effects (font (size 1.27 1.27)) hide)
    )
    (property "Datasheet" "~" (id 3) (at 223.52 64.77 0)
      (effects (font (size 1.27 1.27)) hide)
    )
    (pin "1" (uuid 290e5f91-c98e-4927-92bd-5902244cff1d))
    (pin "2" (uuid 667da81a-4b08-4e8b-879c-334628f7c8cb))
  )

  (symbol (lib_id "Connector_Generic:Conn_01x02") (at 118.11 119.38 180) (unit 1)
    (in_bom yes) (on_board yes) (fields_autoplaced)
    (uuid 379a1d3d-06ee-4f76-ae9f-d9fa559ad89a)
    (property "Reference" "J2" (id 0) (at 118.11 111.6035 0))
    (property "Value" "" (id 1) (at 118.11 114.3786 0))
    (property "Footprint" "" (id 2) (at 118.11 119.38 0)
      (effects (font (size 1.27 1.27)) hide)
    )
    (property "Datasheet" "~" (id 3) (at 118.11 119.38 0)
      (effects (font (size 1.27 1.27)) hide)
    )
    (property "promelec" "https://www.promelec.ru/product/124858/" (id 4) (at 118.11 119.38 0)
      (effects (font (size 1.27 1.27)) hide)
    )
    (pin "1" (uuid b1e161dd-4954-4332-9c5e-dc6346f05eea))
    (pin "2" (uuid 1eccb7bf-ec6a-4551-ba5a-337a64d5e80e))
  )

  (symbol (lib_id "Device:C") (at 187.96 130.81 0) (unit 1)
    (in_bom yes) (on_board yes) (fields_autoplaced)
    (uuid 4d772b74-952b-4267-9ede-1bedda762da4)
    (property "Reference" "C6" (id 0) (at 190.881 129.9015 0)
      (effects (font (size 1.27 1.27)) (justify left))
    )
    (property "Value" "0.1u" (id 1) (at 190.881 132.6766 0)
      (effects (font (size 1.27 1.27)) (justify left))
    )
    (property "Footprint" "Capacitor_SMD:C_0805_2012Metric" (id 2) (at 188.9252 134.62 0)
      (effects (font (size 1.27 1.27)) hide)
    )
    (property "Datasheet" "~" (id 3) (at 187.96 130.81 0)
      (effects (font (size 1.27 1.27)) hide)
    )
    (pin "1" (uuid a01c9985-7100-4877-bb97-07ce9e0c16a9))
    (pin "2" (uuid 7d5985fd-8aba-4399-8d03-39dd4901da29))
  )

  (symbol (lib_id "power:GND") (at 104.14 80.01 0) (unit 1)
    (in_bom yes) (on_board yes) (fields_autoplaced)
    (uuid 51cc82ef-1705-4701-b856-71a7fbe95576)
    (property "Reference" "#PWR0104" (id 0) (at 104.14 86.36 0)
      (effects (font (size 1.27 1.27)) hide)
    )
    (property "Value" "GND" (id 1) (at 104.14 84.5725 0))
    (property "Footprint" "" (id 2) (at 104.14 80.01 0)
      (effects (font (size 1.27 1.27)) hide)
    )
    (property "Datasheet" "" (id 3) (at 104.14 80.01 0)
      (effects (font (size 1.27 1.27)) hide)
    )
    (pin "1" (uuid ae10873c-4504-45e1-82b2-afe4a8bc2548))
  )

  (symbol (lib_id "Device:C") (at 50.8 62.23 0) (unit 1)
    (in_bom yes) (on_board yes)
    (uuid 55f7c1eb-d87f-4506-91e4-1fafb2f6180f)
    (property "Reference" "C1" (id 0) (at 44.45 63.5 0)
      (effects (font (size 1.27 1.27)) (justify left))
    )
    (property "Value" "0.1u" (id 1) (at 43.18 60.96 0)
      (effects (font (size 1.27 1.27)) (justify left))
    )
    (property "Footprint" "Capacitor_SMD:C_0805_2012Metric" (id 2) (at 51.7652 66.04 0)
      (effects (font (size 1.27 1.27)) hide)
    )
    (property "Datasheet" "~" (id 3) (at 50.8 62.23 0)
      (effects (font (size 1.27 1.27)) hide)
    )
    (pin "1" (uuid 60b7aa7f-8ce7-46f9-ba0b-516a24897bea))
    (pin "2" (uuid 76fd536e-75dd-4a2d-ab80-205422d057a8))
  )

  (symbol (lib_id "Regulator_Linear:L7809") (at 171.45 107.95 0) (unit 1)
    (in_bom yes) (on_board yes) (fields_autoplaced)
    (uuid 5f0506d5-0995-46ec-9628-00a745f7b5b4)
    (property "Reference" "U2" (id 0) (at 171.45 102.0785 0))
    (property "Value" "L78M09" (id 1) (at 171.45 104.8536 0))
    (property "Footprint" "Package_TO_SOT_SMD:TO-252-2" (id 2) (at 172.085 111.76 0)
      (effects (font (size 1.27 1.27) italic) (justify left) hide)
    )
    (property "Datasheet" "http://www.st.com/content/ccc/resource/technical/document/datasheet/41/4f/b3/b0/12/d4/47/88/CD00000444.pdf/files/CD00000444.pdf/jcr:content/translations/en.CD00000444.pdf" (id 3) (at 171.45 109.22 0)
      (effects (font (size 1.27 1.27)) hide)
    )
    (property "Promelec" "https://www.promelec.ru/product/111983/" (id 4) (at 171.45 107.95 0)
      (effects (font (size 1.27 1.27)) hide)
    )
    (pin "1" (uuid fd771853-6139-4031-9c24-82e549de877f))
    (pin "2" (uuid b17735e7-866f-4893-8a1e-97004de75696))
    (pin "3" (uuid cdd9c197-09b7-459c-aee6-e218c9a04a33))
  )

  (symbol (lib_id "Device:C") (at 219.71 130.81 0) (unit 1)
    (in_bom yes) (on_board yes) (fields_autoplaced)
    (uuid 61f3d490-c5d4-4012-9b80-8e291c7a60e4)
    (property "Reference" "C7" (id 0) (at 222.631 129.9015 0)
      (effects (font (size 1.27 1.27)) (justify left))
    )
    (property "Value" "0.1u" (id 1) (at 222.631 132.6766 0)
      (effects (font (size 1.27 1.27)) (justify left))
    )
    (property "Footprint" "Capacitor_SMD:C_0805_2012Metric" (id 2) (at 220.6752 134.62 0)
      (effects (font (size 1.27 1.27)) hide)
    )
    (property "Datasheet" "~" (id 3) (at 219.71 130.81 0)
      (effects (font (size 1.27 1.27)) hide)
    )
    (pin "1" (uuid b6b2d6dd-764b-4c76-8699-caddac343aa7))
    (pin "2" (uuid 606e665b-e302-4c8f-8694-43a125c31cbc))
  )

  (symbol (lib_id "Connector_Generic:Conn_01x02") (at 204.47 48.26 0) (unit 1)
    (in_bom yes) (on_board yes) (fields_autoplaced)
    (uuid 6351f9ac-10f7-4101-9449-f2b9322d2704)
    (property "Reference" "J4" (id 0) (at 206.502 48.6215 0)
      (effects (font (size 1.27 1.27)) (justify left))
    )
    (property "Value" "Conn_01x02" (id 1) (at 206.502 51.3966 0)
      (effects (font (size 1.27 1.27)) (justify left))
    )
    (property "Footprint" "Connector_Wire:SolderWire-0.75sqmm_1x02_P4.8mm_D1.25mm_OD2.3mm" (id 2) (at 204.47 48.26 0)
      (effects (font (size 1.27 1.27)) hide)
    )
    (property "Datasheet" "~" (id 3) (at 204.47 48.26 0)
      (effects (font (size 1.27 1.27)) hide)
    )
    (pin "1" (uuid 841c1613-b79b-4de3-9272-614045ec08f1))
    (pin "2" (uuid 159674ae-9732-4ae7-8029-a41526d31acf))
  )

  (symbol (lib_id "74xx:74HC00") (at 87.63 83.82 0) (unit 5)
    (in_bom yes) (on_board yes) (fields_autoplaced)
    (uuid 6543b822-f58e-4dae-90e3-419252c93ac4)
    (property "Reference" "U1" (id 0) (at 93.472 82.9115 0)
      (effects (font (size 1.27 1.27)) (justify left))
    )
    (property "Value" "" (id 1) (at 93.472 85.6866 0)
      (effects (font (size 1.27 1.27)) (justify left))
    )
    (property "Footprint" "" (id 2) (at 87.63 83.82 0)
      (effects (font (size 1.27 1.27)) hide)
    )
    (property "Datasheet" "http://www.ti.com/lit/gpn/sn74hc00" (id 3) (at 87.63 83.82 0)
      (effects (font (size 1.27 1.27)) hide)
    )
    (property "promelec" "https://www.promelec.ru/product/164348/" (id 4) (at 163.83 55.88 0)
      (effects (font (size 1.27 1.27)) hide)
    )
    (pin "1" (uuid e300709f-6c72-488d-a598-efcbd6d3af54))
    (pin "2" (uuid 52a8f1be-73ca-41a8-bc24-2320706b0ec1))
    (pin "3" (uuid e36988d2-ecb2-461b-a443-7006f447e828))
    (pin "4" (uuid d102186a-5b58-41d0-9985-3dbb3593f397))
    (pin "5" (uuid 7c2008c8-0626-4a09-a873-065e83502a0e))
    (pin "6" (uuid f4a8afbe-ed68-4253-959f-6be4d2cbf8c5))
    (pin "10" (uuid 7c411b3e-aca2-424f-b644-2d21c9d80fa7))
    (pin "8" (uuid 6d0c9e39-9878-44c8-8283-9a59e45006fa))
    (pin "9" (uuid 9c607e49-ee5c-4e85-a7da-6fede9912412))
    (pin "11" (uuid e5e5220d-5b7e-47da-a902-b997ec8d4d58))
    (pin "12" (uuid 0cbeb329-a88d-4a47-a5c2-a1d693de2f8c))
    (pin "13" (uuid f345e52a-8e0a-425a-b438-90809dd3b799))
    (pin "14" (uuid b54c8dc8-4d54-40c6-8cf3-b0d8930fbdd1))
    (pin "7" (uuid 701e1175-d532-4c5e-b013-c61641cdf82e))
  )

  (symbol (lib_id "Device:C") (at 63.5 83.82 0) (unit 1)
    (in_bom yes) (on_board yes) (fields_autoplaced)
    (uuid 65f59afd-1ce3-49f5-a00e-3340b2810488)
    (property "Reference" "C2" (id 0) (at 66.421 82.9115 0)
      (effects (font (size 1.27 1.27)) (justify left))
    )
    (property "Value" "0.1u" (id 1) (at 66.421 85.6866 0)
      (effects (font (size 1.27 1.27)) (justify left))
    )
    (property "Footprint" "Capacitor_SMD:C_0805_2012Metric" (id 2) (at 64.4652 87.63 0)
      (effects (font (size 1.27 1.27)) hide)
    )
    (property "Datasheet" "~" (id 3) (at 63.5 83.82 0)
      (effects (font (size 1.27 1.27)) hide)
    )
    (pin "1" (uuid bf04f49f-edc9-49a4-b697-a7d9e18770ef))
    (pin "2" (uuid e16cd965-ae8a-4180-9b91-04398fb2fdee))
  )

  (symbol (lib_id "Diode:1N4148W") (at 224.79 50.8 270) (unit 1)
    (in_bom yes) (on_board yes) (fields_autoplaced)
    (uuid 75f6a1be-fdfb-4a0f-bac5-092d06c19e3e)
    (property "Reference" "D2" (id 0) (at 226.822 49.8915 90)
      (effects (font (size 1.27 1.27)) (justify left))
    )
    (property "Value" "1N4148W" (id 1) (at 226.822 52.6666 90)
      (effects (font (size 1.27 1.27)) (justify left))
    )
    (property "Footprint" "Diode_SMD:D_SOD-123" (id 2) (at 220.345 50.8 0)
      (effects (font (size 1.27 1.27)) hide)
    )
    (property "Datasheet" "https://www.vishay.com/docs/85748/1n4148w.pdf" (id 3) (at 224.79 50.8 0)
      (effects (font (size 1.27 1.27)) hide)
    )
    (pin "1" (uuid f07dc055-f4d6-48ff-b357-8587ae0db2af))
    (pin "2" (uuid a1520635-401f-4129-8422-bce1603bf7b0))
  )

  (symbol (lib_id "Transistor_FET:2N7002") (at 234.95 64.77 0) (unit 1)
    (in_bom yes) (on_board yes) (fields_autoplaced)
    (uuid 80376906-98ba-400e-9daa-7360753e6e11)
    (property "Reference" "Q2" (id 0) (at 240.157 63.8615 0)
      (effects (font (size 1.27 1.27)) (justify left))
    )
    (property "Value" "2N7002" (id 1) (at 240.157 66.6366 0)
      (effects (font (size 1.27 1.27)) (justify left))
    )
    (property "Footprint" "Package_TO_SOT_SMD:SOT-23" (id 2) (at 240.03 66.675 0)
      (effects (font (size 1.27 1.27) italic) (justify left) hide)
    )
    (property "Datasheet" "https://www.onsemi.com/pub/Collateral/NDS7002A-D.PDF" (id 3) (at 234.95 64.77 0)
      (effects (font (size 1.27 1.27)) (justify left) hide)
    )
    (pin "1" (uuid 86c9c79e-ae64-4326-8098-1d821df982b5))
    (pin "2" (uuid 062f898e-5f00-4062-bca4-69bbf4cd671c))
    (pin "3" (uuid 8ec82c68-8d21-4726-b390-d1138fcf40f0))
  )

  (symbol (lib_id "Connector_Generic:Conn_01x03") (at 46.99 78.74 0) (mirror y) (unit 1)
    (in_bom yes) (on_board yes) (fields_autoplaced)
    (uuid 88fe126b-6e9a-456a-8fbc-e70bd03c6c58)
    (property "Reference" "J1" (id 0) (at 46.99 70.9635 0))
    (property "Value" "Conn_01x03" (id 1) (at 46.99 73.7386 0))
    (property "Footprint" "Connector_PinHeader_2.54mm:PinHeader_1x03_P2.54mm_Vertical" (id 2) (at 46.99 78.74 0)
      (effects (font (size 1.27 1.27)) hide)
    )
    (property "Datasheet" "~" (id 3) (at 46.99 78.74 0)
      (effects (font (size 1.27 1.27)) hide)
    )
    (pin "1" (uuid 81d02e3f-8a4a-4f4a-8c87-a49e720a351f))
    (pin "2" (uuid 6cdb3c4c-67c0-4103-b73f-13947ee7b311))
    (pin "3" (uuid 72b8bd2c-7322-4211-94c6-b8b57c1ae45f))
  )

  (symbol (lib_id "Device:C") (at 146.05 130.81 0) (unit 1)
    (in_bom yes) (on_board yes) (fields_autoplaced)
    (uuid 8c87f375-671e-40d1-86bb-d08fea43ec78)
    (property "Reference" "C5" (id 0) (at 148.971 129.9015 0)
      (effects (font (size 1.27 1.27)) (justify left))
    )
    (property "Value" "0.1u" (id 1) (at 148.971 132.6766 0)
      (effects (font (size 1.27 1.27)) (justify left))
    )
    (property "Footprint" "Capacitor_SMD:C_0805_2012Metric" (id 2) (at 147.0152 134.62 0)
      (effects (font (size 1.27 1.27)) hide)
    )
    (property "Datasheet" "~" (id 3) (at 146.05 130.81 0)
      (effects (font (size 1.27 1.27)) hide)
    )
    (pin "1" (uuid 31567090-0f8e-46cb-8815-76b846c06579))
    (pin "2" (uuid 3992455e-000d-4d2f-b02e-89a74dea4994))
  )

  (symbol (lib_id "Device:R") (at 63.5 74.93 180) (unit 1)
    (in_bom yes) (on_board yes) (fields_autoplaced)
    (uuid 8f4588c4-5883-4f67-a561-4aadbc457ce7)
    (property "Reference" "R1" (id 0) (at 65.278 74.0215 0)
      (effects (font (size 1.27 1.27)) (justify right))
    )
    (property "Value" "10k" (id 1) (at 65.278 76.7966 0)
      (effects (font (size 1.27 1.27)) (justify right))
    )
    (property "Footprint" "Resistor_SMD:R_0805_2012Metric" (id 2) (at 65.278 74.93 90)
      (effects (font (size 1.27 1.27)) hide)
    )
    (property "Datasheet" "~" (id 3) (at 63.5 74.93 0)
      (effects (font (size 1.27 1.27)) hide)
    )
    (pin "1" (uuid 2a905797-1802-4cb4-8fa9-ca48f6269d20))
    (pin "2" (uuid 67b5b126-0146-41dd-b818-c6e4d37433c8))
  )

  (symbol (lib_id "74xx:74HC00") (at 88.9 53.34 0) (unit 2)
    (in_bom yes) (on_board yes) (fields_autoplaced)
    (uuid 96815f61-f3f5-43c2-b68f-856577233f16)
    (property "Reference" "U1" (id 0) (at 88.9 45.5635 0))
    (property "Value" "" (id 1) (at 88.9 48.3386 0))
    (property "Footprint" "" (id 2) (at 88.9 53.34 0)
      (effects (font (size 1.27 1.27)) hide)
    )
    (property "Datasheet" "http://www.ti.com/lit/gpn/sn74hc00" (id 3) (at 88.9 53.34 0)
      (effects (font (size 1.27 1.27)) hide)
    )
    (property "promelec" "https://www.promelec.ru/product/164348/" (id 4) (at 163.83 55.88 0)
      (effects (font (size 1.27 1.27)) hide)
    )
    (pin "1" (uuid 75b944f9-bf25-4dc7-8104-e9f80b4f359b))
    (pin "2" (uuid 2165c9a4-eb84-4cb6-a870-2fdc39d2511b))
    (pin "3" (uuid 84d4e166-b429-409a-ab37-c6a10fd82ff5))
    (pin "4" (uuid 127b0e8c-8b10-4db4-b691-908ac98caaf1))
    (pin "5" (uuid 00c9c1c9-df78-4bf8-a378-9edee7dafbe3))
    (pin "6" (uuid 92419cc9-1070-47aa-876c-2cf8f5a03a47))
    (pin "10" (uuid 7f2b3ce3-2f20-426d-b769-e0329b6a8111))
    (pin "8" (uuid 6cb93665-0bcd-4104-8633-fffd1811eee0))
    (pin "9" (uuid e0830067-5b66-4ce1-b2d1-aaa8af20baf7))
    (pin "11" (uuid 34c0bee6-7425-4435-8857-d1fe8dfb6d89))
    (pin "12" (uuid 6cb535a7-247d-4f99-997d-c21b160eadfa))
    (pin "13" (uuid f5c43e09-08d6-4a29-a53a-3b9ea7fb34cd))
    (pin "14" (uuid 7c5f3091-7791-43b3-8d50-43f6a72274c9))
    (pin "7" (uuid 8ac400bf-c9b3-4af4-b0a7-9aa9ab4ad17e))
  )

  (symbol (lib_id "Device:R") (at 184.15 66.04 90) (unit 1)
    (in_bom yes) (on_board yes) (fields_autoplaced)
    (uuid 9dd760be-d6e1-42de-a416-691ed58f615a)
    (property "Reference" "R3" (id 0) (at 184.15 61.0575 90))
    (property "Value" "100" (id 1) (at 184.15 63.8326 90))
    (property "Footprint" "Resistor_SMD:R_0805_2012Metric" (id 2) (at 184.15 67.818 90)
      (effects (font (size 1.27 1.27)) hide)
    )
    (property "Datasheet" "~" (id 3) (at 184.15 66.04 0)
      (effects (font (size 1.27 1.27)) hide)
    )
    (pin "1" (uuid eaa3afba-59e4-4891-aac3-dc99bb721cd0))
    (pin "2" (uuid b5c32e54-7c6c-4e0a-8b14-a4e0f60ff9a2))
  )

  (symbol (lib_id "power:GND") (at 63.5 87.63 0) (unit 1)
    (in_bom yes) (on_board yes) (fields_autoplaced)
    (uuid a0e1d03b-10bf-47bf-bb19-34f370c33a49)
    (property "Reference" "#PWR0108" (id 0) (at 63.5 93.98 0)
      (effects (font (size 1.27 1.27)) hide)
    )
    (property "Value" "GND" (id 1) (at 63.5 92.1925 0))
    (property "Footprint" "" (id 2) (at 63.5 87.63 0)
      (effects (font (size 1.27 1.27)) hide)
    )
    (property "Datasheet" "" (id 3) (at 63.5 87.63 0)
      (effects (font (size 1.27 1.27)) hide)
    )
    (pin "1" (uuid 6a0e8c9c-cbf7-408a-8836-7c24fdd3aa05))
  )

  (symbol (lib_id "74xx:74HC00") (at 163.83 55.88 0) (unit 3)
    (in_bom yes) (on_board yes) (fields_autoplaced)
    (uuid a199448e-aaff-46f6-b21d-e01219dfab4b)
    (property "Reference" "U1" (id 0) (at 163.83 48.1035 0))
    (property "Value" "" (id 1) (at 163.83 50.8786 0))
    (property "Footprint" "" (id 2) (at 163.83 55.88 0)
      (effects (font (size 1.27 1.27)) hide)
    )
    (property "Datasheet" "http://www.ti.com/lit/gpn/sn74hc00" (id 3) (at 163.83 55.88 0)
      (effects (font (size 1.27 1.27)) hide)
    )
    (property "promelec" "https://www.promelec.ru/product/164348/" (id 4) (at 163.83 55.88 0)
      (effects (font (size 1.27 1.27)) hide)
    )
    (pin "1" (uuid 590fefcc-03e7-45d6-b6c9-e51a7c3c36c4))
    (pin "2" (uuid 14094ad2-b562-4efa-8c6f-51d7a3134345))
    (pin "3" (uuid cbebc05a-c4dd-4baf-8c08-196e84e08b27))
    (pin "4" (uuid f7447e92-4293-41c4-be3f-69b30aad1f17))
    (pin "5" (uuid 637f12be-fa48-4ce4-96b2-04c21a8795c8))
    (pin "6" (uuid 5ff19d63-2cb4-438b-93c4-e66d37a05329))
    (pin "10" (uuid 1e5f9687-68da-4fa7-a5ab-d249bf5e99b3))
    (pin "8" (uuid dfbb3a32-5fc1-4833-adae-2237b4b9b7be))
    (pin "9" (uuid 99b50a70-a0e7-4449-a39d-2391a4bbe067))
    (pin "11" (uuid 8bdea5f6-7a53-427a-92b8-fd15994c2e8c))
    (pin "12" (uuid 1cb22080-0f59-4c18-a6e6-8685ef44ec53))
    (pin "13" (uuid 701e1517-e8cf-46f4-b538-98e721c97380))
    (pin "14" (uuid 235067e2-1686-40fe-a9a0-61704311b2b1))
    (pin "7" (uuid 31f91ec8-56e4-4e08-9ccd-012652772211))
  )

  (symbol (lib_id "Diode:1N4148W") (at 189.23 52.07 270) (unit 1)
    (in_bom yes) (on_board yes) (fields_autoplaced)
    (uuid a4660526-5282-4bc2-bb6a-04ab8dd6b0f5)
    (property "Reference" "D1" (id 0) (at 191.262 51.1615 90)
      (effects (font (size 1.27 1.27)) (justify left))
    )
    (property "Value" "1N4148W" (id 1) (at 191.262 53.9366 90)
      (effects (font (size 1.27 1.27)) (justify left))
    )
    (property "Footprint" "Diode_SMD:D_SOD-123" (id 2) (at 184.785 52.07 0)
      (effects (font (size 1.27 1.27)) hide)
    )
    (property "Datasheet" "https://www.vishay.com/docs/85748/1n4148w.pdf" (id 3) (at 189.23 52.07 0)
      (effects (font (size 1.27 1.27)) hide)
    )
    (pin "1" (uuid eb3b850b-a6dc-440e-a996-3ca3d245150a))
    (pin "2" (uuid e78a8fb1-0711-4642-84c9-3c56916a6c97))
  )

  (symbol (lib_id "power:GND") (at 187.96 134.62 0) (unit 1)
    (in_bom yes) (on_board yes) (fields_autoplaced)
    (uuid a9abdba6-175f-4fbd-84d9-08c6ab39c35a)
    (property "Reference" "#PWR0101" (id 0) (at 187.96 140.97 0)
      (effects (font (size 1.27 1.27)) hide)
    )
    (property "Value" "GND" (id 1) (at 187.96 139.1825 0))
    (property "Footprint" "" (id 2) (at 187.96 134.62 0)
      (effects (font (size 1.27 1.27)) hide)
    )
    (property "Datasheet" "" (id 3) (at 187.96 134.62 0)
      (effects (font (size 1.27 1.27)) hide)
    )
    (pin "1" (uuid 40ed5281-be35-466b-9b45-0d42c4f600ba))
  )

  (symbol (lib_id "power:GND") (at 201.93 71.12 0) (unit 1)
    (in_bom yes) (on_board yes) (fields_autoplaced)
    (uuid b34dd80d-88ee-4ee8-82f4-ffe81f0d4200)
    (property "Reference" "#PWR0110" (id 0) (at 201.93 77.47 0)
      (effects (font (size 1.27 1.27)) hide)
    )
    (property "Value" "GND" (id 1) (at 201.93 75.6825 0))
    (property "Footprint" "" (id 2) (at 201.93 71.12 0)
      (effects (font (size 1.27 1.27)) hide)
    )
    (property "Datasheet" "" (id 3) (at 201.93 71.12 0)
      (effects (font (size 1.27 1.27)) hide)
    )
    (pin "1" (uuid 1da07baa-4d6a-4cb1-b6b2-33f318471a72))
  )

  (symbol (lib_id "Device:C_Polarized") (at 76.2 39.37 90) (unit 1)
    (in_bom yes) (on_board yes) (fields_autoplaced)
    (uuid b7f1724b-1d47-4bd9-8c41-10c52964ecee)
    (property "Reference" "C3" (id 0) (at 75.311 33.2445 90))
    (property "Value" "" (id 1) (at 75.311 36.0196 90))
    (property "Footprint" "" (id 2) (at 80.01 38.4048 0)
      (effects (font (size 1.27 1.27)) hide)
    )
    (property "Datasheet" "~" (id 3) (at 76.2 39.37 0)
      (effects (font (size 1.27 1.27)) hide)
    )
    (property "promelec" "https://www.promelec.ru/product/103490/" (id 4) (at 76.2 39.37 90)
      (effects (font (size 1.27 1.27)) hide)
    )
    (pin "1" (uuid c016ea9b-a3b9-465f-977f-843bdc754e51))
    (pin "2" (uuid 7ce16dc6-ed84-4899-83f9-fe959aaa6ffe))
  )

  (symbol (lib_id "Regulator_Linear:L78L05_SOT89") (at 203.2 107.95 0) (unit 1)
    (in_bom yes) (on_board yes) (fields_autoplaced)
    (uuid c27334c5-6a09-4b32-aee1-9cdbfca4b904)
    (property "Reference" "U3" (id 0) (at 203.2 102.0785 0))
    (property "Value" "" (id 1) (at 203.2 104.8536 0))
    (property "Footprint" "" (id 2) (at 203.2 102.87 0)
      (effects (font (size 1.27 1.27) italic) hide)
    )
    (property "Datasheet" "http://www.st.com/content/ccc/resource/technical/document/datasheet/15/55/e5/aa/23/5b/43/fd/CD00000446.pdf/files/CD00000446.pdf/jcr:content/translations/en.CD00000446.pdf" (id 3) (at 203.2 109.22 0)
      (effects (font (size 1.27 1.27)) hide)
    )
    (property "promelec" "https://www.promelec.ru/product/84908/" (id 4) (at 203.2 107.95 0)
      (effects (font (size 1.27 1.27)) hide)
    )
    (pin "1" (uuid 1c8c23e0-56cf-4386-ae60-03c7ce615baa))
    (pin "2" (uuid 760704c2-fc8f-4ff3-b5e5-dec8884c4349))
    (pin "3" (uuid 7d026865-13e5-44db-9058-c3a8ec6c4bc1))
  )

  (symbol (lib_id "power:GND") (at 146.05 134.62 0) (unit 1)
    (in_bom yes) (on_board yes) (fields_autoplaced)
    (uuid c53fcb04-1736-4478-8cde-745567d8a0c0)
    (property "Reference" "#PWR0103" (id 0) (at 146.05 140.97 0)
      (effects (font (size 1.27 1.27)) hide)
    )
    (property "Value" "GND" (id 1) (at 146.05 139.1825 0))
    (property "Footprint" "" (id 2) (at 146.05 134.62 0)
      (effects (font (size 1.27 1.27)) hide)
    )
    (property "Datasheet" "" (id 3) (at 146.05 134.62 0)
      (effects (font (size 1.27 1.27)) hide)
    )
    (pin "1" (uuid e7ae4571-3522-4650-b980-c0e3c19ae83c))
  )

  (symbol (lib_id "power:GND") (at 52.07 81.28 0) (unit 1)
    (in_bom yes) (on_board yes) (fields_autoplaced)
    (uuid d168798d-5510-4af9-a4d5-15427d9e98b4)
    (property "Reference" "#PWR0106" (id 0) (at 52.07 87.63 0)
      (effects (font (size 1.27 1.27)) hide)
    )
    (property "Value" "GND" (id 1) (at 52.07 85.8425 0))
    (property "Footprint" "" (id 2) (at 52.07 81.28 0)
      (effects (font (size 1.27 1.27)) hide)
    )
    (property "Datasheet" "" (id 3) (at 52.07 81.28 0)
      (effects (font (size 1.27 1.27)) hide)
    )
    (pin "1" (uuid b11c3fe1-a2e1-49f7-92b9-d99590e8a57c))
  )

  (symbol (lib_id "power:GND") (at 219.71 134.62 0) (unit 1)
    (in_bom yes) (on_board yes) (fields_autoplaced)
    (uuid d48359d1-2efa-48b5-9ff6-c355e36b1bc4)
    (property "Reference" "#PWR0111" (id 0) (at 219.71 140.97 0)
      (effects (font (size 1.27 1.27)) hide)
    )
    (property "Value" "GND" (id 1) (at 219.71 139.1825 0))
    (property "Footprint" "" (id 2) (at 219.71 134.62 0)
      (effects (font (size 1.27 1.27)) hide)
    )
    (property "Datasheet" "" (id 3) (at 219.71 134.62 0)
      (effects (font (size 1.27 1.27)) hide)
    )
    (pin "1" (uuid d34ea4b1-2a60-4ba1-9416-a50c78e55826))
  )

  (symbol (lib_id "74xx:74HC00") (at 68.58 53.34 0) (unit 1)
    (in_bom yes) (on_board yes) (fields_autoplaced)
    (uuid e40e8cef-4fb0-4fc3-be09-3875b2cc8469)
    (property "Reference" "U1" (id 0) (at 68.58 45.5635 0))
    (property "Value" "" (id 1) (at 68.58 48.3386 0))
    (property "Footprint" "" (id 2) (at 68.58 53.34 0)
      (effects (font (size 1.27 1.27)) hide)
    )
    (property "Datasheet" "http://www.ti.com/lit/gpn/sn74hc00" (id 3) (at 68.58 53.34 0)
      (effects (font (size 1.27 1.27)) hide)
    )
    (property "promelec" "https://www.promelec.ru/product/164348/" (id 4) (at 163.83 55.88 0)
      (effects (font (size 1.27 1.27)) hide)
    )
    (pin "1" (uuid 7a4ce4b3-518a-4819-b8b2-5127b3347c64))
    (pin "2" (uuid 20c315f4-1e4f-49aa-8d61-778a7389df7e))
    (pin "3" (uuid 7e0a03ae-d054-4f76-a131-5c09b8dc1636))
    (pin "4" (uuid 8f12311d-6f4c-4d28-a5bc-d6cb462bade7))
    (pin "5" (uuid db742b9e-1fed-4e0c-b783-f911ab5116aa))
    (pin "6" (uuid 4344bc11-e822-474b-8d61-d12211e719b1))
    (pin "10" (uuid 12c8f4c9-cb79-4390-b96c-a717c693de17))
    (pin "8" (uuid 12f8e43c-8f83-48d3-a9b5-5f3ebc0b6c43))
    (pin "9" (uuid eaa0d51a-ee4e-4d3a-a801-bddb7027e94c))
    (pin "11" (uuid 5f38bdb2-3657-474e-8e86-d6bb0b298110))
    (pin "12" (uuid d72c89a6-7578-4468-964e-2a845431195f))
    (pin "13" (uuid 282c8e53-3acc-42f0-a92a-6aa976b97a93))
    (pin "14" (uuid 83c5181e-f5ee-453c-ae5c-d7256ba8837d))
    (pin "7" (uuid 0b4c0f05-c855-4742-bad2-dbf645d5842b))
  )

  (symbol (lib_id "power:GND") (at 50.8 66.04 0) (unit 1)
    (in_bom yes) (on_board yes) (fields_autoplaced)
    (uuid e466d5bb-0fee-4ccd-8f2f-2a393f6b3223)
    (property "Reference" "#PWR0105" (id 0) (at 50.8 72.39 0)
      (effects (font (size 1.27 1.27)) hide)
    )
    (property "Value" "GND" (id 1) (at 50.8 70.6025 0))
    (property "Footprint" "" (id 2) (at 50.8 66.04 0)
      (effects (font (size 1.27 1.27)) hide)
    )
    (property "Datasheet" "" (id 3) (at 50.8 66.04 0)
      (effects (font (size 1.27 1.27)) hide)
    )
    (pin "1" (uuid 31750af2-25b2-4a7c-a38a-0b418efea19b))
  )

  (symbol (lib_id "power:GND") (at 237.49 69.85 0) (unit 1)
    (in_bom yes) (on_board yes) (fields_autoplaced)
    (uuid e4a52823-d722-448b-bd40-1f415b4523da)
    (property "Reference" "#PWR0109" (id 0) (at 237.49 76.2 0)
      (effects (font (size 1.27 1.27)) hide)
    )
    (property "Value" "GND" (id 1) (at 237.49 74.4125 0))
    (property "Footprint" "" (id 2) (at 237.49 69.85 0)
      (effects (font (size 1.27 1.27)) hide)
    )
    (property "Datasheet" "" (id 3) (at 237.49 69.85 0)
      (effects (font (size 1.27 1.27)) hide)
    )
    (pin "1" (uuid 5c6b6f45-9e09-43a9-906f-16266c775a8c))
  )

  (symbol (lib_id "Transistor_FET:2N7002") (at 199.39 66.04 0) (unit 1)
    (in_bom yes) (on_board yes) (fields_autoplaced)
    (uuid eb5334ee-eeb4-43f9-8190-eb2d25c3d343)
    (property "Reference" "Q1" (id 0) (at 204.597 65.1315 0)
      (effects (font (size 1.27 1.27)) (justify left))
    )
    (property "Value" "2N7002" (id 1) (at 204.597 67.9066 0)
      (effects (font (size 1.27 1.27)) (justify left))
    )
    (property "Footprint" "Package_TO_SOT_SMD:SOT-23" (id 2) (at 204.47 67.945 0)
      (effects (font (size 1.27 1.27) italic) (justify left) hide)
    )
    (property "Datasheet" "https://www.onsemi.com/pub/Collateral/NDS7002A-D.PDF" (id 3) (at 199.39 66.04 0)
      (effects (font (size 1.27 1.27)) (justify left) hide)
    )
    (pin "1" (uuid 90a007c8-c822-4ebb-9819-46979a536fb9))
    (pin "2" (uuid fb7bf3a7-4cd9-4dcb-8bac-86c2217c08a2))
    (pin "3" (uuid 6aeafff6-3be4-4498-9854-57c3abfa45d2))
  )

  (symbol (lib_id "74xx:74HC00") (at 121.92 63.5 0) (unit 4)
    (in_bom yes) (on_board yes) (fields_autoplaced)
    (uuid f10fe1b6-f645-44d8-a779-e60b8654088d)
    (property "Reference" "U1" (id 0) (at 121.92 55.7235 0))
    (property "Value" "" (id 1) (at 121.92 58.4986 0))
    (property "Footprint" "" (id 2) (at 121.92 63.5 0)
      (effects (font (size 1.27 1.27)) hide)
    )
    (property "Datasheet" "http://www.ti.com/lit/gpn/sn74hc00" (id 3) (at 121.92 63.5 0)
      (effects (font (size 1.27 1.27)) hide)
    )
    (property "promelec" "https://www.promelec.ru/product/164348/" (id 4) (at 163.83 55.88 0)
      (effects (font (size 1.27 1.27)) hide)
    )
    (pin "1" (uuid bb59b92a-e4d0-4b9e-82cd-26304f5c15b8))
    (pin "2" (uuid f6983918-fe05-46ea-b355-bc522ec53440))
    (pin "3" (uuid f44d04c5-0d17-4d52-8328-ef3b4fdfba5f))
    (pin "4" (uuid 759788bd-3cb9-4d38-b58c-5cb10b7dca6b))
    (pin "5" (uuid 20caf6d2-76a7-497e-ac56-f6d31eb9027b))
    (pin "6" (uuid 2f291a4b-4ecb-4692-9ad2-324f9784c0d4))
    (pin "10" (uuid f447e585-df78-4239-b8cb-4653b3837bb1))
    (pin "8" (uuid 62a1f3d4-027d-4ecf-a37a-6fcf4263e9d2))
    (pin "9" (uuid 3a70978e-dcc2-4620-a99c-514362812927))
    (pin "11" (uuid 4acead20-afd3-40c9-9779-362a2fa8e3db))
    (pin "12" (uuid 7302d1b8-5eb7-435f-8a27-1e073843e0b6))
    (pin "13" (uuid 7e321d44-b31c-441e-a648-29f6a530a65c))
    (pin "14" (uuid c71f56c1-5b7c-4373-9716-fffac482104c))
    (pin "7" (uuid 1ab71a3c-340b-469a-ada5-4f87f0b7b2fa))
  )

  (symbol (lib_id "power:GND") (at 181.61 115.57 0) (unit 1)
    (in_bom yes) (on_board yes) (fields_autoplaced)
    (uuid f24d8e05-3b2f-4cc5-828a-954e40c68dc7)
    (property "Reference" "#PWR0102" (id 0) (at 181.61 121.92 0)
      (effects (font (size 1.27 1.27)) hide)
    )
    (property "Value" "GND" (id 1) (at 181.61 120.1325 0))
    (property "Footprint" "" (id 2) (at 181.61 115.57 0)
      (effects (font (size 1.27 1.27)) hide)
    )
    (property "Datasheet" "" (id 3) (at 181.61 115.57 0)
      (effects (font (size 1.27 1.27)) hide)
    )
    (pin "1" (uuid 5f52f8ea-44bf-495f-8f5d-3c88fc271c29))
  )

  (symbol (lib_id "Connector_Generic:Conn_01x02") (at 240.03 46.99 0) (unit 1)
    (in_bom yes) (on_board yes) (fields_autoplaced)
    (uuid f8072cd6-c277-4a27-a7be-7291f33b40eb)
    (property "Reference" "J5" (id 0) (at 242.062 47.3515 0)
      (effects (font (size 1.27 1.27)) (justify left))
    )
    (property "Value" "Conn_01x02" (id 1) (at 242.062 50.1266 0)
      (effects (font (size 1.27 1.27)) (justify left))
    )
    (property "Footprint" "Connector_Wire:SolderWire-0.75sqmm_1x02_P4.8mm_D1.25mm_OD2.3mm" (id 2) (at 240.03 46.99 0)
      (effects (font (size 1.27 1.27)) hide)
    )
    (property "Datasheet" "~" (id 3) (at 240.03 46.99 0)
      (effects (font (size 1.27 1.27)) hide)
    )
    (pin "1" (uuid c5869978-95e5-49a9-9812-bad3fa31bee1))
    (pin "2" (uuid dbd4d020-874e-4afa-a4bc-fedb6ca03da7))
  )

  (sheet_instances
    (path "/" (page "1"))
  )

  (symbol_instances
    (path "/a9abdba6-175f-4fbd-84d9-08c6ab39c35a"
      (reference "#PWR0101") (unit 1) (value "GND") (footprint "")
    )
    (path "/f24d8e05-3b2f-4cc5-828a-954e40c68dc7"
      (reference "#PWR0102") (unit 1) (value "GND") (footprint "")
    )
    (path "/c53fcb04-1736-4478-8cde-745567d8a0c0"
      (reference "#PWR0103") (unit 1) (value "GND") (footprint "")
    )
    (path "/51cc82ef-1705-4701-b856-71a7fbe95576"
      (reference "#PWR0104") (unit 1) (value "GND") (footprint "")
    )
    (path "/e466d5bb-0fee-4ccd-8f2f-2a393f6b3223"
      (reference "#PWR0105") (unit 1) (value "GND") (footprint "")
    )
    (path "/d168798d-5510-4af9-a4d5-15427d9e98b4"
      (reference "#PWR0106") (unit 1) (value "GND") (footprint "")
    )
    (path "/2c110474-2739-470a-b7b9-e510e2240863"
      (reference "#PWR0107") (unit 1) (value "GND") (footprint "")
    )
    (path "/a0e1d03b-10bf-47bf-bb19-34f370c33a49"
      (reference "#PWR0108") (unit 1) (value "GND") (footprint "")
    )
    (path "/e4a52823-d722-448b-bd40-1f415b4523da"
      (reference "#PWR0109") (unit 1) (value "GND") (footprint "")
    )
    (path "/b34dd80d-88ee-4ee8-82f4-ffe81f0d4200"
      (reference "#PWR0110") (unit 1) (value "GND") (footprint "")
    )
    (path "/d48359d1-2efa-48b5-9ff6-c355e36b1bc4"
      (reference "#PWR0111") (unit 1) (value "GND") (footprint "")
    )
    (path "/55f7c1eb-d87f-4506-91e4-1fafb2f6180f"
      (reference "C1") (unit 1) (value "0.1u") (footprint "Capacitor_SMD:C_0805_2012Metric")
    )
    (path "/65f59afd-1ce3-49f5-a00e-3340b2810488"
      (reference "C2") (unit 1) (value "0.1u") (footprint "Capacitor_SMD:C_0805_2012Metric")
    )
    (path "/b7f1724b-1d47-4bd9-8c41-10c52964ecee"
      (reference "C3") (unit 1) (value "47u") (footprint "Capacitor_THT:CP_Radial_D5.0mm_P2.50mm")
    )
    (path "/0787c923-4e10-46a8-adf3-fd0e8127376e"
      (reference "C4") (unit 1) (value "0.1u") (footprint "Capacitor_SMD:C_0805_2012Metric")
    )
    (path "/8c87f375-671e-40d1-86bb-d08fea43ec78"
      (reference "C5") (unit 1) (value "0.1u") (footprint "Capacitor_SMD:C_0805_2012Metric")
    )
    (path "/4d772b74-952b-4267-9ede-1bedda762da4"
      (reference "C6") (unit 1) (value "0.1u") (footprint "Capacitor_SMD:C_0805_2012Metric")
    )
    (path "/61f3d490-c5d4-4012-9b80-8e291c7a60e4"
      (reference "C7") (unit 1) (value "0.1u") (footprint "Capacitor_SMD:C_0805_2012Metric")
    )
    (path "/a4660526-5282-4bc2-bb6a-04ab8dd6b0f5"
      (reference "D1") (unit 1) (value "1N4148W") (footprint "Diode_SMD:D_SOD-123")
    )
    (path "/75f6a1be-fdfb-4a0f-bac5-092d06c19e3e"
      (reference "D2") (unit 1) (value "1N4148W") (footprint "Diode_SMD:D_SOD-123")
    )
    (path "/88fe126b-6e9a-456a-8fbc-e70bd03c6c58"
      (reference "J1") (unit 1) (value "Conn_01x03") (footprint "Connector_PinHeader_2.54mm:PinHeader_1x03_P2.54mm_Vertical")
    )
    (path "/379a1d3d-06ee-4f76-ae9f-d9fa559ad89a"
      (reference "J2") (unit 1) (value "Conn_01x02") (footprint "Connector_Phoenix_MSTB:PhoenixContact_MSTBVA_2,5_2-G-5,08_1x02_P5.08mm_Vertical")
    )
    (path "/03b308b1-c47f-4eed-883f-9cf03f646b7b"
      (reference "J3") (unit 1) (value "Conn_01x03") (footprint "Connector_PinHeader_2.54mm:PinHeader_1x03_P2.54mm_Vertical")
    )
    (path "/6351f9ac-10f7-4101-9449-f2b9322d2704"
      (reference "J4") (unit 1) (value "Conn_01x02") (footprint "Connector_Wire:SolderWire-0.75sqmm_1x02_P4.8mm_D1.25mm_OD2.3mm")
    )
    (path "/f8072cd6-c277-4a27-a7be-7291f33b40eb"
      (reference "J5") (unit 1) (value "Conn_01x02") (footprint "Connector_Wire:SolderWire-0.75sqmm_1x02_P4.8mm_D1.25mm_OD2.3mm")
    )
    (path "/eb5334ee-eeb4-43f9-8190-eb2d25c3d343"
      (reference "Q1") (unit 1) (value "2N7002") (footprint "Package_TO_SOT_SMD:SOT-23")
    )
    (path "/80376906-98ba-400e-9daa-7360753e6e11"
      (reference "Q2") (unit 1) (value "2N7002") (footprint "Package_TO_SOT_SMD:SOT-23")
    )
    (path "/8f4588c4-5883-4f67-a561-4aadbc457ce7"
      (reference "R1") (unit 1) (value "10k") (footprint "Resistor_SMD:R_0805_2012Metric")
    )
    (path "/1ac507d6-1473-4dee-88e8-4ede4e009385"
      (reference "R2") (unit 1) (value "10k") (footprint "Resistor_SMD:R_0805_2012Metric")
    )
    (path "/9dd760be-d6e1-42de-a416-691ed58f615a"
      (reference "R3") (unit 1) (value "100") (footprint "Resistor_SMD:R_0805_2012Metric")
    )
    (path "/37100c05-589b-4140-b4fc-573ed1548a00"
      (reference "R4") (unit 1) (value "100") (footprint "Resistor_SMD:R_0805_2012Metric")
    )
    (path "/e40e8cef-4fb0-4fc3-be09-3875b2cc8469"
      (reference "U1") (unit 1) (value "74HC00") (footprint "Package_SO:TSSOP-14_4.4x5mm_P0.65mm")
    )
    (path "/96815f61-f3f5-43c2-b68f-856577233f16"
      (reference "U1") (unit 2) (value "74HC00") (footprint "Package_SO:TSSOP-14_4.4x5mm_P0.65mm")
    )
    (path "/a199448e-aaff-46f6-b21d-e01219dfab4b"
      (reference "U1") (unit 3) (value "74HC00") (footprint "Package_SO:TSSOP-14_4.4x5mm_P0.65mm")
    )
    (path "/f10fe1b6-f645-44d8-a779-e60b8654088d"
      (reference "U1") (unit 4) (value "74HC00") (footprint "Package_SO:TSSOP-14_4.4x5mm_P0.65mm")
    )
    (path "/6543b822-f58e-4dae-90e3-419252c93ac4"
      (reference "U1") (unit 5) (value "74HC00") (footprint "Package_SO:TSSOP-14_4.4x5mm_P0.65mm")
    )
    (path "/5f0506d5-0995-46ec-9628-00a745f7b5b4"
      (reference "U2") (unit 1) (value "L78M09") (footprint "Package_TO_SOT_SMD:TO-252-2")
    )
    (path "/c27334c5-6a09-4b32-aee1-9cdbfca4b904"
      (reference "U3") (unit 1) (value "L78L05_SOT89") (footprint "Package_TO_SOT_SMD:SOT-89-3")
    )
  )
)
