%TF.GenerationSoftware,KiCad,Pcbnew,(6.0.4)*%
%TF.CreationDate,2022-05-30T15:34:53+05:00*%
%TF.ProjectId,sig_free,7369675f-6672-4656-952e-6b696361645f,rev?*%
%TF.SameCoordinates,Original*%
%TF.FileFunction,Legend,Top*%
%TF.FilePolarity,Positive*%
%FSLAX46Y46*%
G04 Gerber Fmt 4.6, Leading zero omitted, Abs format (unit mm)*
G04 Created by KiCad (PCBNEW (6.0.4)) date 2022-05-30 15:34:53*
%MOMM*%
%LPD*%
G01*
G04 APERTURE LIST*
%ADD10C,0.150000*%
%ADD11C,0.120000*%
G04 APERTURE END LIST*
D10*
%TO.C,C5*%
X142837142Y-111166666D02*
X142884761Y-111214285D01*
X142932380Y-111357142D01*
X142932380Y-111452380D01*
X142884761Y-111595238D01*
X142789523Y-111690476D01*
X142694285Y-111738095D01*
X142503809Y-111785714D01*
X142360952Y-111785714D01*
X142170476Y-111738095D01*
X142075238Y-111690476D01*
X141980000Y-111595238D01*
X141932380Y-111452380D01*
X141932380Y-111357142D01*
X141980000Y-111214285D01*
X142027619Y-111166666D01*
X141932380Y-110261904D02*
X141932380Y-110738095D01*
X142408571Y-110785714D01*
X142360952Y-110738095D01*
X142313333Y-110642857D01*
X142313333Y-110404761D01*
X142360952Y-110309523D01*
X142408571Y-110261904D01*
X142503809Y-110214285D01*
X142741904Y-110214285D01*
X142837142Y-110261904D01*
X142884761Y-110309523D01*
X142932380Y-110404761D01*
X142932380Y-110642857D01*
X142884761Y-110738095D01*
X142837142Y-110785714D01*
%TO.C,J2*%
X137202380Y-115333333D02*
X137916666Y-115333333D01*
X138059523Y-115380952D01*
X138154761Y-115476190D01*
X138202380Y-115619047D01*
X138202380Y-115714285D01*
X137297619Y-114904761D02*
X137250000Y-114857142D01*
X137202380Y-114761904D01*
X137202380Y-114523809D01*
X137250000Y-114428571D01*
X137297619Y-114380952D01*
X137392857Y-114333333D01*
X137488095Y-114333333D01*
X137630952Y-114380952D01*
X138202380Y-114952380D01*
X138202380Y-114333333D01*
%TO.C,D1*%
X152702380Y-113488095D02*
X151702380Y-113488095D01*
X151702380Y-113250000D01*
X151750000Y-113107142D01*
X151845238Y-113011904D01*
X151940476Y-112964285D01*
X152130952Y-112916666D01*
X152273809Y-112916666D01*
X152464285Y-112964285D01*
X152559523Y-113011904D01*
X152654761Y-113107142D01*
X152702380Y-113250000D01*
X152702380Y-113488095D01*
X152702380Y-111964285D02*
X152702380Y-112535714D01*
X152702380Y-112250000D02*
X151702380Y-112250000D01*
X151845238Y-112345238D01*
X151940476Y-112440476D01*
X151988095Y-112535714D01*
%TO.C,R2*%
X136952380Y-119916666D02*
X136476190Y-120250000D01*
X136952380Y-120488095D02*
X135952380Y-120488095D01*
X135952380Y-120107142D01*
X136000000Y-120011904D01*
X136047619Y-119964285D01*
X136142857Y-119916666D01*
X136285714Y-119916666D01*
X136380952Y-119964285D01*
X136428571Y-120011904D01*
X136476190Y-120107142D01*
X136476190Y-120488095D01*
X136047619Y-119535714D02*
X136000000Y-119488095D01*
X135952380Y-119392857D01*
X135952380Y-119154761D01*
X136000000Y-119059523D01*
X136047619Y-119011904D01*
X136142857Y-118964285D01*
X136238095Y-118964285D01*
X136380952Y-119011904D01*
X136952380Y-119583333D01*
X136952380Y-118964285D01*
%TO.C,U3*%
X144338095Y-116752380D02*
X144338095Y-117561904D01*
X144385714Y-117657142D01*
X144433333Y-117704761D01*
X144528571Y-117752380D01*
X144719047Y-117752380D01*
X144814285Y-117704761D01*
X144861904Y-117657142D01*
X144909523Y-117561904D01*
X144909523Y-116752380D01*
X145290476Y-116752380D02*
X145909523Y-116752380D01*
X145576190Y-117133333D01*
X145719047Y-117133333D01*
X145814285Y-117180952D01*
X145861904Y-117228571D01*
X145909523Y-117323809D01*
X145909523Y-117561904D01*
X145861904Y-117657142D01*
X145814285Y-117704761D01*
X145719047Y-117752380D01*
X145433333Y-117752380D01*
X145338095Y-117704761D01*
X145290476Y-117657142D01*
%TO.C,C1*%
X152083333Y-115607142D02*
X152035714Y-115654761D01*
X151892857Y-115702380D01*
X151797619Y-115702380D01*
X151654761Y-115654761D01*
X151559523Y-115559523D01*
X151511904Y-115464285D01*
X151464285Y-115273809D01*
X151464285Y-115130952D01*
X151511904Y-114940476D01*
X151559523Y-114845238D01*
X151654761Y-114750000D01*
X151797619Y-114702380D01*
X151892857Y-114702380D01*
X152035714Y-114750000D01*
X152083333Y-114797619D01*
X153035714Y-115702380D02*
X152464285Y-115702380D01*
X152750000Y-115702380D02*
X152750000Y-114702380D01*
X152654761Y-114845238D01*
X152559523Y-114940476D01*
X152464285Y-114988095D01*
%TO.C,J4*%
X157166666Y-114702380D02*
X157166666Y-115416666D01*
X157119047Y-115559523D01*
X157023809Y-115654761D01*
X156880952Y-115702380D01*
X156785714Y-115702380D01*
X158071428Y-115035714D02*
X158071428Y-115702380D01*
X157833333Y-114654761D02*
X157595238Y-115369047D01*
X158214285Y-115369047D01*
%TO.C,C4*%
X142333333Y-118357142D02*
X142285714Y-118404761D01*
X142142857Y-118452380D01*
X142047619Y-118452380D01*
X141904761Y-118404761D01*
X141809523Y-118309523D01*
X141761904Y-118214285D01*
X141714285Y-118023809D01*
X141714285Y-117880952D01*
X141761904Y-117690476D01*
X141809523Y-117595238D01*
X141904761Y-117500000D01*
X142047619Y-117452380D01*
X142142857Y-117452380D01*
X142285714Y-117500000D01*
X142333333Y-117547619D01*
X143190476Y-117785714D02*
X143190476Y-118452380D01*
X142952380Y-117404761D02*
X142714285Y-118119047D01*
X143333333Y-118119047D01*
%TO.C,J1*%
X157066666Y-119722380D02*
X157066666Y-120436666D01*
X157019047Y-120579523D01*
X156923809Y-120674761D01*
X156780952Y-120722380D01*
X156685714Y-120722380D01*
X158066666Y-120722380D02*
X157495238Y-120722380D01*
X157780952Y-120722380D02*
X157780952Y-119722380D01*
X157685714Y-119865238D01*
X157590476Y-119960476D01*
X157495238Y-120008095D01*
%TO.C,J3*%
X149066666Y-127307380D02*
X149066666Y-128021666D01*
X149019047Y-128164523D01*
X148923809Y-128259761D01*
X148780952Y-128307380D01*
X148685714Y-128307380D01*
X149447619Y-127307380D02*
X150066666Y-127307380D01*
X149733333Y-127688333D01*
X149876190Y-127688333D01*
X149971428Y-127735952D01*
X150019047Y-127783571D01*
X150066666Y-127878809D01*
X150066666Y-128116904D01*
X150019047Y-128212142D01*
X149971428Y-128259761D01*
X149876190Y-128307380D01*
X149590476Y-128307380D01*
X149495238Y-128259761D01*
X149447619Y-128212142D01*
%TO.C,C7*%
X153433333Y-124237142D02*
X153385714Y-124284761D01*
X153242857Y-124332380D01*
X153147619Y-124332380D01*
X153004761Y-124284761D01*
X152909523Y-124189523D01*
X152861904Y-124094285D01*
X152814285Y-123903809D01*
X152814285Y-123760952D01*
X152861904Y-123570476D01*
X152909523Y-123475238D01*
X153004761Y-123380000D01*
X153147619Y-123332380D01*
X153242857Y-123332380D01*
X153385714Y-123380000D01*
X153433333Y-123427619D01*
X153766666Y-123332380D02*
X154433333Y-123332380D01*
X154004761Y-124332380D01*
%TO.C,J5*%
X157166666Y-104702380D02*
X157166666Y-105416666D01*
X157119047Y-105559523D01*
X157023809Y-105654761D01*
X156880952Y-105702380D01*
X156785714Y-105702380D01*
X158119047Y-104702380D02*
X157642857Y-104702380D01*
X157595238Y-105178571D01*
X157642857Y-105130952D01*
X157738095Y-105083333D01*
X157976190Y-105083333D01*
X158071428Y-105130952D01*
X158119047Y-105178571D01*
X158166666Y-105273809D01*
X158166666Y-105511904D01*
X158119047Y-105607142D01*
X158071428Y-105654761D01*
X157976190Y-105702380D01*
X157738095Y-105702380D01*
X157642857Y-105654761D01*
X157595238Y-105607142D01*
%TO.C,C6*%
X147333333Y-111607142D02*
X147285714Y-111654761D01*
X147142857Y-111702380D01*
X147047619Y-111702380D01*
X146904761Y-111654761D01*
X146809523Y-111559523D01*
X146761904Y-111464285D01*
X146714285Y-111273809D01*
X146714285Y-111130952D01*
X146761904Y-110940476D01*
X146809523Y-110845238D01*
X146904761Y-110750000D01*
X147047619Y-110702380D01*
X147142857Y-110702380D01*
X147285714Y-110750000D01*
X147333333Y-110797619D01*
X148190476Y-110702380D02*
X148000000Y-110702380D01*
X147904761Y-110750000D01*
X147857142Y-110797619D01*
X147761904Y-110940476D01*
X147714285Y-111130952D01*
X147714285Y-111511904D01*
X147761904Y-111607142D01*
X147809523Y-111654761D01*
X147904761Y-111702380D01*
X148095238Y-111702380D01*
X148190476Y-111654761D01*
X148238095Y-111607142D01*
X148285714Y-111511904D01*
X148285714Y-111273809D01*
X148238095Y-111178571D01*
X148190476Y-111130952D01*
X148095238Y-111083333D01*
X147904761Y-111083333D01*
X147809523Y-111130952D01*
X147761904Y-111178571D01*
X147714285Y-111273809D01*
%TO.C,C2*%
X153357142Y-126916666D02*
X153404761Y-126964285D01*
X153452380Y-127107142D01*
X153452380Y-127202380D01*
X153404761Y-127345238D01*
X153309523Y-127440476D01*
X153214285Y-127488095D01*
X153023809Y-127535714D01*
X152880952Y-127535714D01*
X152690476Y-127488095D01*
X152595238Y-127440476D01*
X152500000Y-127345238D01*
X152452380Y-127202380D01*
X152452380Y-127107142D01*
X152500000Y-126964285D01*
X152547619Y-126916666D01*
X152547619Y-126535714D02*
X152500000Y-126488095D01*
X152452380Y-126392857D01*
X152452380Y-126154761D01*
X152500000Y-126059523D01*
X152547619Y-126011904D01*
X152642857Y-125964285D01*
X152738095Y-125964285D01*
X152880952Y-126011904D01*
X153452380Y-126583333D01*
X153452380Y-125964285D01*
%TO.C,Q2*%
X155904761Y-110047619D02*
X155809523Y-110000000D01*
X155714285Y-109904761D01*
X155571428Y-109761904D01*
X155476190Y-109714285D01*
X155380952Y-109714285D01*
X155428571Y-109952380D02*
X155333333Y-109904761D01*
X155238095Y-109809523D01*
X155190476Y-109619047D01*
X155190476Y-109285714D01*
X155238095Y-109095238D01*
X155333333Y-109000000D01*
X155428571Y-108952380D01*
X155619047Y-108952380D01*
X155714285Y-109000000D01*
X155809523Y-109095238D01*
X155857142Y-109285714D01*
X155857142Y-109619047D01*
X155809523Y-109809523D01*
X155714285Y-109904761D01*
X155619047Y-109952380D01*
X155428571Y-109952380D01*
X156238095Y-109047619D02*
X156285714Y-109000000D01*
X156380952Y-108952380D01*
X156619047Y-108952380D01*
X156714285Y-109000000D01*
X156761904Y-109047619D01*
X156809523Y-109142857D01*
X156809523Y-109238095D01*
X156761904Y-109380952D01*
X156190476Y-109952380D01*
X156809523Y-109952380D01*
%TO.C,U1*%
X139238095Y-119452380D02*
X139238095Y-120261904D01*
X139285714Y-120357142D01*
X139333333Y-120404761D01*
X139428571Y-120452380D01*
X139619047Y-120452380D01*
X139714285Y-120404761D01*
X139761904Y-120357142D01*
X139809523Y-120261904D01*
X139809523Y-119452380D01*
X140809523Y-120452380D02*
X140238095Y-120452380D01*
X140523809Y-120452380D02*
X140523809Y-119452380D01*
X140428571Y-119595238D01*
X140333333Y-119690476D01*
X140238095Y-119738095D01*
%TO.C,D2*%
X151011904Y-101952380D02*
X151011904Y-100952380D01*
X151250000Y-100952380D01*
X151392857Y-101000000D01*
X151488095Y-101095238D01*
X151535714Y-101190476D01*
X151583333Y-101380952D01*
X151583333Y-101523809D01*
X151535714Y-101714285D01*
X151488095Y-101809523D01*
X151392857Y-101904761D01*
X151250000Y-101952380D01*
X151011904Y-101952380D01*
X151964285Y-101047619D02*
X152011904Y-101000000D01*
X152107142Y-100952380D01*
X152345238Y-100952380D01*
X152440476Y-101000000D01*
X152488095Y-101047619D01*
X152535714Y-101142857D01*
X152535714Y-101238095D01*
X152488095Y-101380952D01*
X151916666Y-101952380D01*
X152535714Y-101952380D01*
%TO.C,U2*%
X145238095Y-100552380D02*
X145238095Y-101361904D01*
X145285714Y-101457142D01*
X145333333Y-101504761D01*
X145428571Y-101552380D01*
X145619047Y-101552380D01*
X145714285Y-101504761D01*
X145761904Y-101457142D01*
X145809523Y-101361904D01*
X145809523Y-100552380D01*
X146238095Y-100647619D02*
X146285714Y-100600000D01*
X146380952Y-100552380D01*
X146619047Y-100552380D01*
X146714285Y-100600000D01*
X146761904Y-100647619D01*
X146809523Y-100742857D01*
X146809523Y-100838095D01*
X146761904Y-100980952D01*
X146190476Y-101552380D01*
X146809523Y-101552380D01*
%TO.C,R3*%
X149633333Y-118702380D02*
X149300000Y-118226190D01*
X149061904Y-118702380D02*
X149061904Y-117702380D01*
X149442857Y-117702380D01*
X149538095Y-117750000D01*
X149585714Y-117797619D01*
X149633333Y-117892857D01*
X149633333Y-118035714D01*
X149585714Y-118130952D01*
X149538095Y-118178571D01*
X149442857Y-118226190D01*
X149061904Y-118226190D01*
X149966666Y-117702380D02*
X150585714Y-117702380D01*
X150252380Y-118083333D01*
X150395238Y-118083333D01*
X150490476Y-118130952D01*
X150538095Y-118178571D01*
X150585714Y-118273809D01*
X150585714Y-118511904D01*
X150538095Y-118607142D01*
X150490476Y-118654761D01*
X150395238Y-118702380D01*
X150109523Y-118702380D01*
X150014285Y-118654761D01*
X149966666Y-118607142D01*
%TO.C,R1*%
X146952380Y-122666666D02*
X146476190Y-123000000D01*
X146952380Y-123238095D02*
X145952380Y-123238095D01*
X145952380Y-122857142D01*
X146000000Y-122761904D01*
X146047619Y-122714285D01*
X146142857Y-122666666D01*
X146285714Y-122666666D01*
X146380952Y-122714285D01*
X146428571Y-122761904D01*
X146476190Y-122857142D01*
X146476190Y-123238095D01*
X146952380Y-121714285D02*
X146952380Y-122285714D01*
X146952380Y-122000000D02*
X145952380Y-122000000D01*
X146095238Y-122095238D01*
X146190476Y-122190476D01*
X146238095Y-122285714D01*
%TO.C,C3*%
X138357142Y-127666666D02*
X138404761Y-127714285D01*
X138452380Y-127857142D01*
X138452380Y-127952380D01*
X138404761Y-128095238D01*
X138309523Y-128190476D01*
X138214285Y-128238095D01*
X138023809Y-128285714D01*
X137880952Y-128285714D01*
X137690476Y-128238095D01*
X137595238Y-128190476D01*
X137500000Y-128095238D01*
X137452380Y-127952380D01*
X137452380Y-127857142D01*
X137500000Y-127714285D01*
X137547619Y-127666666D01*
X137452380Y-127333333D02*
X137452380Y-126714285D01*
X137833333Y-127047619D01*
X137833333Y-126904761D01*
X137880952Y-126809523D01*
X137928571Y-126761904D01*
X138023809Y-126714285D01*
X138261904Y-126714285D01*
X138357142Y-126761904D01*
X138404761Y-126809523D01*
X138452380Y-126904761D01*
X138452380Y-127190476D01*
X138404761Y-127285714D01*
X138357142Y-127333333D01*
%TO.C,Q1*%
X153654761Y-120797619D02*
X153559523Y-120750000D01*
X153464285Y-120654761D01*
X153321428Y-120511904D01*
X153226190Y-120464285D01*
X153130952Y-120464285D01*
X153178571Y-120702380D02*
X153083333Y-120654761D01*
X152988095Y-120559523D01*
X152940476Y-120369047D01*
X152940476Y-120035714D01*
X152988095Y-119845238D01*
X153083333Y-119750000D01*
X153178571Y-119702380D01*
X153369047Y-119702380D01*
X153464285Y-119750000D01*
X153559523Y-119845238D01*
X153607142Y-120035714D01*
X153607142Y-120369047D01*
X153559523Y-120559523D01*
X153464285Y-120654761D01*
X153369047Y-120702380D01*
X153178571Y-120702380D01*
X154559523Y-120702380D02*
X153988095Y-120702380D01*
X154273809Y-120702380D02*
X154273809Y-119702380D01*
X154178571Y-119845238D01*
X154083333Y-119940476D01*
X153988095Y-119988095D01*
%TO.C,R4*%
X146833333Y-110452380D02*
X146500000Y-109976190D01*
X146261904Y-110452380D02*
X146261904Y-109452380D01*
X146642857Y-109452380D01*
X146738095Y-109500000D01*
X146785714Y-109547619D01*
X146833333Y-109642857D01*
X146833333Y-109785714D01*
X146785714Y-109880952D01*
X146738095Y-109928571D01*
X146642857Y-109976190D01*
X146261904Y-109976190D01*
X147690476Y-109785714D02*
X147690476Y-110452380D01*
X147452380Y-109404761D02*
X147214285Y-110119047D01*
X147833333Y-110119047D01*
D11*
%TO.C,C5*%
X141535000Y-110738748D02*
X141535000Y-111261252D01*
X140065000Y-110738748D02*
X140065000Y-111261252D01*
%TO.C,J2*%
X130090000Y-101270000D02*
X130090000Y-113650000D01*
X129890000Y-110000000D02*
X129290000Y-110300000D01*
X130090000Y-105920000D02*
X130090000Y-103920000D01*
X130900000Y-101270000D02*
X130900000Y-103810000D01*
X130900000Y-113650000D02*
X130900000Y-111110000D01*
X138910000Y-113650000D02*
X138910000Y-101270000D01*
X138910000Y-101270000D02*
X130090000Y-101270000D01*
X131900000Y-103920000D02*
X131900000Y-105920000D01*
X137200000Y-112740000D02*
X131900000Y-112740000D01*
X130090000Y-111000000D02*
X130090000Y-109000000D01*
X131900000Y-105920000D02*
X130090000Y-105920000D01*
X137200000Y-108000000D02*
X137200000Y-106920000D01*
X137200000Y-102180000D02*
X137200000Y-102920000D01*
X129290000Y-109700000D02*
X129890000Y-110000000D01*
X129290000Y-110300000D02*
X129290000Y-109700000D01*
X131900000Y-111000000D02*
X130090000Y-111000000D01*
X131900000Y-102180000D02*
X137200000Y-102180000D01*
X130900000Y-109000000D02*
X130900000Y-105920000D01*
X137200000Y-112000000D02*
X137200000Y-112740000D01*
X130090000Y-113650000D02*
X138910000Y-113650000D01*
X130090000Y-103920000D02*
X131900000Y-103920000D01*
X131900000Y-112740000D02*
X131900000Y-102180000D01*
X131900000Y-109000000D02*
X131900000Y-111000000D01*
X130090000Y-109000000D02*
X131900000Y-109000000D01*
X137200000Y-112000000D02*
G75*
G03*
X137215821Y-108013158I-1650000J2000000D01*
G01*
X137200000Y-106920000D02*
G75*
G03*
X137215821Y-102933158I-1650000J2000000D01*
G01*
%TO.C,D1*%
X153000000Y-110750000D02*
X153000000Y-114650000D01*
X155000000Y-110750000D02*
X153000000Y-110750000D01*
X155000000Y-110750000D02*
X155000000Y-114650000D01*
%TO.C,R2*%
X137125000Y-122022936D02*
X137125000Y-122477064D01*
X135655000Y-122022936D02*
X135655000Y-122477064D01*
%TO.C,U3*%
X143740000Y-112750000D02*
X143740000Y-111440000D01*
X146460000Y-111440000D02*
X146460000Y-111670000D01*
X143740000Y-116160000D02*
X143740000Y-114850000D01*
X147600000Y-115930000D02*
X146460000Y-115930000D01*
X146460000Y-116160000D02*
X143740000Y-116160000D01*
X146460000Y-116160000D02*
X146460000Y-115930000D01*
X143740000Y-111440000D02*
X146460000Y-111440000D01*
%TO.C,C1*%
X149538748Y-115135000D02*
X150061252Y-115135000D01*
X149538748Y-113665000D02*
X150061252Y-113665000D01*
%TO.C,C4*%
X143861252Y-118665000D02*
X143338748Y-118665000D01*
X143861252Y-120135000D02*
X143338748Y-120135000D01*
%TO.C,J1*%
X156070000Y-123870000D02*
X156070000Y-129010000D01*
X156070000Y-123870000D02*
X158730000Y-123870000D01*
X156070000Y-122600000D02*
X156070000Y-121270000D01*
X158730000Y-123870000D02*
X158730000Y-129010000D01*
X156070000Y-121270000D02*
X157400000Y-121270000D01*
X156070000Y-129010000D02*
X158730000Y-129010000D01*
%TO.C,J3*%
X150730000Y-119115000D02*
X148070000Y-119115000D01*
X150730000Y-124255000D02*
X148070000Y-124255000D01*
X150730000Y-124255000D02*
X150730000Y-119115000D01*
X150730000Y-125525000D02*
X150730000Y-126855000D01*
X148070000Y-124255000D02*
X148070000Y-119115000D01*
X150730000Y-126855000D02*
X149400000Y-126855000D01*
%TO.C,C7*%
X153861252Y-122935000D02*
X153338748Y-122935000D01*
X153861252Y-121465000D02*
X153338748Y-121465000D01*
%TO.C,C6*%
X149538748Y-112935000D02*
X150061252Y-112935000D01*
X149538748Y-111465000D02*
X150061252Y-111465000D01*
%TO.C,C2*%
X153665000Y-126538748D02*
X153665000Y-127061252D01*
X155135000Y-126538748D02*
X155135000Y-127061252D01*
%TO.C,Q2*%
X151940000Y-108000000D02*
X151940000Y-107350000D01*
X155060000Y-108000000D02*
X155060000Y-107350000D01*
X151940000Y-108000000D02*
X151940000Y-109675000D01*
X155060000Y-108000000D02*
X155060000Y-108650000D01*
%TO.C,U1*%
X141400000Y-126010000D02*
X139200000Y-126010000D01*
X141400000Y-126010000D02*
X143600000Y-126010000D01*
X141400000Y-120790000D02*
X143600000Y-120790000D01*
X141400000Y-120790000D02*
X137800000Y-120790000D01*
%TO.C,D2*%
X155000000Y-101250000D02*
X153000000Y-101250000D01*
X155000000Y-101250000D02*
X155000000Y-105150000D01*
X153000000Y-101250000D02*
X153000000Y-105150000D01*
%TO.C,U2*%
X145030000Y-109050000D02*
X143530000Y-109050000D01*
X143530000Y-108780000D02*
X142430000Y-108780000D01*
X143530000Y-102420000D02*
X140700000Y-102420000D01*
X145030000Y-102150000D02*
X143530000Y-102150000D01*
X143530000Y-109050000D02*
X143530000Y-108780000D01*
X143530000Y-102150000D02*
X143530000Y-102420000D01*
%TO.C,R3*%
X149572936Y-115865000D02*
X150027064Y-115865000D01*
X149572936Y-117335000D02*
X150027064Y-117335000D01*
%TO.C,R1*%
X145665000Y-120427064D02*
X145665000Y-119972936D01*
X147135000Y-120427064D02*
X147135000Y-119972936D01*
%TO.C,C3*%
X136428000Y-127325888D02*
X135040000Y-127325888D01*
X132960000Y-128005888D02*
X131935000Y-128005888D01*
X134677000Y-128965888D02*
X133323000Y-128965888D01*
X136122000Y-127925888D02*
X135040000Y-127925888D01*
X136247000Y-127725888D02*
X135040000Y-127725888D01*
X132960000Y-127124888D02*
X131509000Y-127124888D01*
X132960000Y-126684888D02*
X131431000Y-126684888D01*
X132960000Y-127565888D02*
X131671000Y-127565888D01*
X136580000Y-126484888D02*
X131420000Y-126484888D01*
X136268000Y-127685888D02*
X135040000Y-127685888D01*
X134284000Y-129045888D02*
X133716000Y-129045888D01*
X136200000Y-127805888D02*
X135040000Y-127805888D01*
X132960000Y-127485888D02*
X131635000Y-127485888D01*
X132960000Y-127845888D02*
X131825000Y-127845888D01*
X132960000Y-127765888D02*
X131776000Y-127765888D01*
X136578000Y-126564888D02*
X131422000Y-126564888D01*
X136550000Y-126844888D02*
X135040000Y-126844888D01*
X136543000Y-126884888D02*
X135040000Y-126884888D01*
X135699000Y-128405888D02*
X135040000Y-128405888D01*
X136468000Y-127205888D02*
X135040000Y-127205888D01*
X132960000Y-127405888D02*
X131602000Y-127405888D01*
X132960000Y-126724888D02*
X131435000Y-126724888D01*
X136329000Y-127565888D02*
X135040000Y-127565888D01*
X136561000Y-126764888D02*
X135040000Y-126764888D01*
X132960000Y-126884888D02*
X131457000Y-126884888D01*
X135743000Y-128365888D02*
X135040000Y-128365888D01*
X135725000Y-123890113D02*
X135225000Y-123890113D01*
X136556000Y-126804888D02*
X135040000Y-126804888D01*
X132960000Y-126804888D02*
X131444000Y-126804888D01*
X135785000Y-128325888D02*
X135040000Y-128325888D01*
X132960000Y-127084888D02*
X131499000Y-127084888D01*
X136149000Y-127885888D02*
X135040000Y-127885888D01*
X132960000Y-128685888D02*
X132681000Y-128685888D01*
X132960000Y-127645888D02*
X131710000Y-127645888D01*
X136035000Y-128045888D02*
X135040000Y-128045888D01*
X135554000Y-128525888D02*
X135040000Y-128525888D01*
X135383000Y-128645888D02*
X135040000Y-128645888D01*
X132960000Y-128525888D02*
X132446000Y-128525888D01*
X136175000Y-127845888D02*
X135040000Y-127845888D01*
X136480000Y-127165888D02*
X135040000Y-127165888D01*
X136095000Y-127965888D02*
X135040000Y-127965888D01*
X136442000Y-127285888D02*
X135040000Y-127285888D01*
X132960000Y-128085888D02*
X131996000Y-128085888D01*
X132960000Y-126764888D02*
X131439000Y-126764888D01*
X135011000Y-128845888D02*
X132989000Y-128845888D01*
X132960000Y-127285888D02*
X131558000Y-127285888D01*
X136573000Y-126644888D02*
X131427000Y-126644888D01*
X134518000Y-129005888D02*
X133482000Y-129005888D01*
X132960000Y-127205888D02*
X131532000Y-127205888D01*
X135605000Y-128485888D02*
X135040000Y-128485888D01*
X132960000Y-128605888D02*
X132557000Y-128605888D01*
X135098000Y-128805888D02*
X132902000Y-128805888D01*
X136569000Y-126684888D02*
X135040000Y-126684888D01*
X132960000Y-126964888D02*
X131472000Y-126964888D01*
X132960000Y-127885888D02*
X131851000Y-127885888D01*
X136224000Y-127765888D02*
X135040000Y-127765888D01*
X132960000Y-128485888D02*
X132395000Y-128485888D01*
X132960000Y-128405888D02*
X132301000Y-128405888D01*
X136580000Y-126444888D02*
X131420000Y-126444888D01*
X136579000Y-126524888D02*
X131421000Y-126524888D01*
X132960000Y-128165888D02*
X132063000Y-128165888D01*
X132960000Y-126844888D02*
X131450000Y-126844888D01*
X136455000Y-127245888D02*
X135040000Y-127245888D01*
X135443000Y-128605888D02*
X135040000Y-128605888D01*
X132960000Y-127325888D02*
X131572000Y-127325888D01*
X135178000Y-128765888D02*
X132822000Y-128765888D01*
X136576000Y-126604888D02*
X131424000Y-126604888D01*
X134915000Y-128885888D02*
X133085000Y-128885888D01*
X136520000Y-127004888D02*
X135040000Y-127004888D01*
X136310000Y-127605888D02*
X135040000Y-127605888D01*
X136348000Y-127525888D02*
X135040000Y-127525888D01*
X136414000Y-127365888D02*
X135040000Y-127365888D01*
X132960000Y-127925888D02*
X131878000Y-127925888D01*
X132960000Y-128125888D02*
X132029000Y-128125888D01*
X136565000Y-126724888D02*
X135040000Y-126724888D01*
X132960000Y-127805888D02*
X131800000Y-127805888D01*
X136398000Y-127405888D02*
X135040000Y-127405888D01*
X132960000Y-127044888D02*
X131489000Y-127044888D01*
X132960000Y-128565888D02*
X132500000Y-128565888D01*
X132960000Y-127685888D02*
X131732000Y-127685888D01*
X132960000Y-128725888D02*
X132749000Y-128725888D01*
X132960000Y-127245888D02*
X131545000Y-127245888D01*
X132960000Y-128365888D02*
X132257000Y-128365888D01*
X135251000Y-128725888D02*
X135040000Y-128725888D01*
X136290000Y-127645888D02*
X135040000Y-127645888D01*
X132960000Y-127004888D02*
X131480000Y-127004888D01*
X132960000Y-127605888D02*
X131690000Y-127605888D01*
X134805000Y-128925888D02*
X133195000Y-128925888D01*
X132960000Y-128445888D02*
X132347000Y-128445888D01*
X135864000Y-128245888D02*
X135040000Y-128245888D01*
X132960000Y-128245888D02*
X132136000Y-128245888D01*
X135971000Y-128125888D02*
X135040000Y-128125888D01*
X132960000Y-127165888D02*
X131520000Y-127165888D01*
X136382000Y-127445888D02*
X135040000Y-127445888D01*
X136501000Y-127084888D02*
X135040000Y-127084888D01*
X136004000Y-128085888D02*
X135040000Y-128085888D01*
X132960000Y-127365888D02*
X131586000Y-127365888D01*
X136491000Y-127124888D02*
X135040000Y-127124888D01*
X132960000Y-127965888D02*
X131905000Y-127965888D01*
X132960000Y-128325888D02*
X132215000Y-128325888D01*
X132960000Y-128045888D02*
X131965000Y-128045888D01*
X135319000Y-128685888D02*
X135040000Y-128685888D01*
X132960000Y-128645888D02*
X132617000Y-128645888D01*
X132960000Y-127725888D02*
X131753000Y-127725888D01*
X136065000Y-128005888D02*
X135040000Y-128005888D01*
X136536000Y-126924888D02*
X135040000Y-126924888D01*
X135475000Y-123640113D02*
X135475000Y-124140113D01*
X132960000Y-127525888D02*
X131652000Y-127525888D01*
X135500000Y-128565888D02*
X135040000Y-128565888D01*
X135826000Y-128285888D02*
X135040000Y-128285888D01*
X136528000Y-126964888D02*
X135040000Y-126964888D01*
X136365000Y-127485888D02*
X135040000Y-127485888D01*
X135937000Y-128165888D02*
X135040000Y-128165888D01*
X136511000Y-127044888D02*
X135040000Y-127044888D01*
X132960000Y-127445888D02*
X131618000Y-127445888D01*
X132960000Y-128205888D02*
X132099000Y-128205888D01*
X132960000Y-126924888D02*
X131464000Y-126924888D01*
X132960000Y-128285888D02*
X132174000Y-128285888D01*
X135653000Y-128445888D02*
X135040000Y-128445888D01*
X135901000Y-128205888D02*
X135040000Y-128205888D01*
X136620000Y-126444888D02*
G75*
G03*
X136620000Y-126444888I-2620000J0D01*
G01*
%TO.C,Q1*%
X155060000Y-117500000D02*
X155060000Y-118150000D01*
X155060000Y-117500000D02*
X155060000Y-116850000D01*
X151940000Y-117500000D02*
X151940000Y-119175000D01*
X151940000Y-117500000D02*
X151940000Y-116850000D01*
%TO.C,R4*%
X149572936Y-110935000D02*
X150027064Y-110935000D01*
X149572936Y-109465000D02*
X150027064Y-109465000D01*
%TD*%
M02*
