%TF.GenerationSoftware,KiCad,Pcbnew,(6.0.4)*%
%TF.CreationDate,2022-05-30T15:34:53+05:00*%
%TF.ProjectId,sig_free,7369675f-6672-4656-952e-6b696361645f,rev?*%
%TF.SameCoordinates,Original*%
%TF.FileFunction,Paste,Top*%
%TF.FilePolarity,Positive*%
%FSLAX46Y46*%
G04 Gerber Fmt 4.6, Leading zero omitted, Abs format (unit mm)*
G04 Created by KiCad (PCBNEW (6.0.4)) date 2022-05-30 15:34:53*
%MOMM*%
%LPD*%
G01*
G04 APERTURE LIST*
G04 Aperture macros list*
%AMRoundRect*
0 Rectangle with rounded corners*
0 $1 Rounding radius*
0 $2 $3 $4 $5 $6 $7 $8 $9 X,Y pos of 4 corners*
0 Add a 4 corners polygon primitive as box body*
4,1,4,$2,$3,$4,$5,$6,$7,$8,$9,$2,$3,0*
0 Add four circle primitives for the rounded corners*
1,1,$1+$1,$2,$3*
1,1,$1+$1,$4,$5*
1,1,$1+$1,$6,$7*
1,1,$1+$1,$8,$9*
0 Add four rect primitives between the rounded corners*
20,1,$1+$1,$2,$3,$4,$5,0*
20,1,$1+$1,$4,$5,$6,$7,0*
20,1,$1+$1,$6,$7,$8,$9,0*
20,1,$1+$1,$8,$9,$2,$3,0*%
%AMFreePoly0*
4,1,9,3.862500,-0.866500,0.737500,-0.866500,0.737500,-0.450000,-0.737500,-0.450000,-0.737500,0.450000,0.737500,0.450000,0.737500,0.866500,3.862500,0.866500,3.862500,-0.866500,3.862500,-0.866500,$1*%
G04 Aperture macros list end*
%ADD10RoundRect,0.250000X-0.475000X0.250000X-0.475000X-0.250000X0.475000X-0.250000X0.475000X0.250000X0*%
%ADD11R,1.200000X0.900000*%
%ADD12RoundRect,0.250000X-0.450000X0.262500X-0.450000X-0.262500X0.450000X-0.262500X0.450000X0.262500X0*%
%ADD13R,1.300000X0.900000*%
%ADD14FreePoly0,180.000000*%
%ADD15RoundRect,0.250000X-0.250000X-0.475000X0.250000X-0.475000X0.250000X0.475000X-0.250000X0.475000X0*%
%ADD16RoundRect,0.250000X0.250000X0.475000X-0.250000X0.475000X-0.250000X-0.475000X0.250000X-0.475000X0*%
%ADD17RoundRect,0.150000X0.150000X-0.587500X0.150000X0.587500X-0.150000X0.587500X-0.150000X-0.587500X0*%
%ADD18RoundRect,0.100000X-0.637500X-0.100000X0.637500X-0.100000X0.637500X0.100000X-0.637500X0.100000X0*%
%ADD19R,3.050000X2.750000*%
%ADD20R,2.200000X1.200000*%
%ADD21RoundRect,0.250000X-0.262500X-0.450000X0.262500X-0.450000X0.262500X0.450000X-0.262500X0.450000X0*%
%ADD22RoundRect,0.250000X0.450000X-0.262500X0.450000X0.262500X-0.450000X0.262500X-0.450000X-0.262500X0*%
G04 APERTURE END LIST*
D10*
%TO.C,C5*%
X140800000Y-110050000D03*
X140800000Y-111950000D03*
%TD*%
D11*
%TO.C,D1*%
X154000000Y-111350000D03*
X154000000Y-114650000D03*
%TD*%
D12*
%TO.C,R2*%
X136390000Y-121337500D03*
X136390000Y-123162500D03*
%TD*%
D13*
%TO.C,U3*%
X147050000Y-115300000D03*
D14*
X146962500Y-113800000D03*
D13*
X147050000Y-112300000D03*
%TD*%
D15*
%TO.C,C1*%
X148850000Y-114400000D03*
X150750000Y-114400000D03*
%TD*%
D16*
%TO.C,C4*%
X144550000Y-119400000D03*
X142650000Y-119400000D03*
%TD*%
%TO.C,C7*%
X154550000Y-122200000D03*
X152650000Y-122200000D03*
%TD*%
D15*
%TO.C,C6*%
X148850000Y-112200000D03*
X150750000Y-112200000D03*
%TD*%
D10*
%TO.C,C2*%
X154400000Y-125850000D03*
X154400000Y-127750000D03*
%TD*%
D17*
%TO.C,Q2*%
X152550000Y-108937500D03*
X154450000Y-108937500D03*
X153500000Y-107062500D03*
%TD*%
D18*
%TO.C,U1*%
X138537500Y-121450000D03*
X138537500Y-122100000D03*
X138537500Y-122750000D03*
X138537500Y-123400000D03*
X138537500Y-124050000D03*
X138537500Y-124700000D03*
X138537500Y-125350000D03*
X144262500Y-125350000D03*
X144262500Y-124700000D03*
X144262500Y-124050000D03*
X144262500Y-123400000D03*
X144262500Y-122750000D03*
X144262500Y-122100000D03*
X144262500Y-121450000D03*
%TD*%
D11*
%TO.C,D2*%
X154000000Y-101850000D03*
X154000000Y-105150000D03*
%TD*%
D19*
%TO.C,U2*%
X146425000Y-107125000D03*
X146425000Y-104075000D03*
X149775000Y-107125000D03*
X149775000Y-104075000D03*
D20*
X141800000Y-103320000D03*
X141800000Y-107880000D03*
%TD*%
D21*
%TO.C,R3*%
X148887500Y-116600000D03*
X150712500Y-116600000D03*
%TD*%
D22*
%TO.C,R1*%
X146400000Y-121112500D03*
X146400000Y-119287500D03*
%TD*%
D17*
%TO.C,Q1*%
X152550000Y-118437500D03*
X154450000Y-118437500D03*
X153500000Y-116562500D03*
%TD*%
D21*
%TO.C,R4*%
X148887500Y-110200000D03*
X150712500Y-110200000D03*
%TD*%
M02*
